(kicad_sch (version 20230121) (generator eeschema)

  (uuid e63e39d7-6ac0-4ffd-8aa3-1841a4541b55)

  (paper "A4")

  (title_block
    (title "Fuente 200W")
    (date "2023-08-04")
    (rev "v002")
    (company "Einsted SA")
    (comment 1 "Nicolas Ferraro, Hernan Windholz, Gabriel Esquivel")
  )

  (lib_symbols
    (symbol "BPG_Potencia-rescue:SN74HC132DR-tedy_library" (pin_names (offset 1.016)) (in_bom yes) (on_board yes)
      (property "Reference" "U" (at 0 1.27 0)
        (effects (font (size 1.27 1.27)))
      )
      (property "Value" "tedy_library_SN74HC132DR" (at 0 -1.27 0)
        (effects (font (size 1.27 1.27)))
      )
      (property "Footprint" "Tedy:SOIC-14_3.9x8.7mm_P1.27mm-Package_SO" (at 0 0 0)
        (effects (font (size 1.27 1.27)) hide)
      )
      (property "Datasheet" "http://www.ti.com/general/docs/suppproductinfo.tsp?distId=10&gotoUrl=http%3A%2F%2Fwww.ti.com%2Flit%2Fgpn%2Fsn74hc132" (at 0 0 0)
        (effects (font (size 1.27 1.27)) hide)
      )
      (property "digikey#" "296-14832-1-ND" (at 0 -2.54 0)
        (effects (font (size 1.524 1.524)) hide)
      )
      (property "manf" "Texas Instruments" (at 0 -2.54 0)
        (effects (font (size 1.524 1.524)) hide)
      )
      (property "manf#" "SN74HC132DR" (at 0 -2.54 0)
        (effects (font (size 1.524 1.524)) hide)
      )
      (property "Precio" "0.35000x1" (at 0 -2.54 0)
        (effects (font (size 1.524 1.524)) hide)
      )
      (property "Description" "IC GATE NAND SCHMITT 4CH 14SOIC" (at 0 -2.54 0)
        (effects (font (size 1.524 1.524)) hide)
      )
      (property "ki_locked" "" (at 0 0 0)
        (effects (font (size 1.27 1.27)))
      )
      (property "ki_fp_filters" "SOIC*3.9x8.7mm*P1.27mm*" (at 0 0 0)
        (effects (font (size 1.27 1.27)) hide)
      )
      (symbol "SN74HC132DR-tedy_library_1_0"
        (polyline
          (pts
            (xy -0.635 -1.27)
            (xy -0.635 1.27)
            (xy 0.635 1.27)
          )
          (stroke (width 0) (type solid))
          (fill (type none))
        )
        (polyline
          (pts
            (xy -0.635 -1.27)
            (xy -0.635 1.27)
            (xy 0.635 1.27)
          )
          (stroke (width 0) (type solid))
          (fill (type none))
        )
        (polyline
          (pts
            (xy -1.27 -1.27)
            (xy 0.635 -1.27)
            (xy 0.635 1.27)
            (xy 1.27 1.27)
          )
          (stroke (width 0) (type solid))
          (fill (type none))
        )
        (polyline
          (pts
            (xy -1.27 -1.27)
            (xy 0.635 -1.27)
            (xy 0.635 1.27)
            (xy 1.27 1.27)
          )
          (stroke (width 0) (type solid))
          (fill (type none))
        )
      )
      (symbol "SN74HC132DR-tedy_library_1_1"
        (arc (start 0 -3.81) (mid 3.7934 0) (end 0 3.81)
          (stroke (width 0.254) (type solid))
          (fill (type background))
        )
        (polyline
          (pts
            (xy 0 3.81)
            (xy -3.81 3.81)
            (xy -3.81 -3.81)
            (xy 0 -3.81)
          )
          (stroke (width 0.254) (type solid))
          (fill (type background))
        )
        (pin input line (at -7.62 2.54 0) (length 3.81)
          (name "~" (effects (font (size 1.27 1.27))))
          (number "1" (effects (font (size 1.27 1.27))))
        )
        (pin input line (at -7.62 -2.54 0) (length 3.81)
          (name "~" (effects (font (size 1.27 1.27))))
          (number "2" (effects (font (size 1.27 1.27))))
        )
        (pin output inverted (at 7.62 0 180) (length 3.81)
          (name "~" (effects (font (size 1.27 1.27))))
          (number "3" (effects (font (size 1.27 1.27))))
        )
      )
      (symbol "SN74HC132DR-tedy_library_1_2"
        (arc (start -3.81 -3.81) (mid -2.589 0) (end -3.81 3.81)
          (stroke (width 0.254) (type solid))
          (fill (type none))
        )
        (arc (start -0.6096 -3.81) (mid 2.1842 -2.5851) (end 3.81 0)
          (stroke (width 0.254) (type solid))
          (fill (type background))
        )
        (polyline
          (pts
            (xy -3.81 -3.81)
            (xy -0.635 -3.81)
          )
          (stroke (width 0.254) (type solid))
          (fill (type background))
        )
        (polyline
          (pts
            (xy -3.81 3.81)
            (xy -0.635 3.81)
          )
          (stroke (width 0.254) (type solid))
          (fill (type background))
        )
        (polyline
          (pts
            (xy -0.635 3.81)
            (xy -3.81 3.81)
            (xy -3.81 3.81)
            (xy -3.556 3.4036)
            (xy -3.0226 2.2606)
            (xy -2.6924 1.0414)
            (xy -2.6162 -0.254)
            (xy -2.7686 -1.4986)
            (xy -3.175 -2.7178)
            (xy -3.81 -3.81)
            (xy -3.81 -3.81)
            (xy -0.635 -3.81)
          )
          (stroke (width -25.4) (type solid))
          (fill (type background))
        )
        (arc (start 3.81 0) (mid 2.1915 2.5936) (end -0.6096 3.81)
          (stroke (width 0.254) (type solid))
          (fill (type background))
        )
        (pin input inverted (at -7.62 2.54 0) (length 4.318)
          (name "~" (effects (font (size 1.27 1.27))))
          (number "1" (effects (font (size 1.27 1.27))))
        )
        (pin input inverted (at -7.62 -2.54 0) (length 4.318)
          (name "~" (effects (font (size 1.27 1.27))))
          (number "2" (effects (font (size 1.27 1.27))))
        )
        (pin output line (at 7.62 0 180) (length 3.81)
          (name "~" (effects (font (size 1.27 1.27))))
          (number "3" (effects (font (size 1.27 1.27))))
        )
      )
      (symbol "SN74HC132DR-tedy_library_2_0"
        (polyline
          (pts
            (xy -0.635 -1.27)
            (xy -0.635 1.27)
            (xy 0.635 1.27)
          )
          (stroke (width 0) (type solid))
          (fill (type none))
        )
        (polyline
          (pts
            (xy -0.635 -1.27)
            (xy -0.635 1.27)
            (xy 0.635 1.27)
          )
          (stroke (width 0) (type solid))
          (fill (type none))
        )
        (polyline
          (pts
            (xy -1.27 -1.27)
            (xy 0.635 -1.27)
            (xy 0.635 1.27)
            (xy 1.27 1.27)
          )
          (stroke (width 0) (type solid))
          (fill (type none))
        )
        (polyline
          (pts
            (xy -1.27 -1.27)
            (xy 0.635 -1.27)
            (xy 0.635 1.27)
            (xy 1.27 1.27)
          )
          (stroke (width 0) (type solid))
          (fill (type none))
        )
      )
      (symbol "SN74HC132DR-tedy_library_2_1"
        (arc (start 0 -3.81) (mid 3.7934 0) (end 0 3.81)
          (stroke (width 0.254) (type solid))
          (fill (type background))
        )
        (polyline
          (pts
            (xy 0 3.81)
            (xy -3.81 3.81)
            (xy -3.81 -3.81)
            (xy 0 -3.81)
          )
          (stroke (width 0.254) (type solid))
          (fill (type background))
        )
        (pin input line (at -7.62 2.54 0) (length 3.81)
          (name "~" (effects (font (size 1.27 1.27))))
          (number "4" (effects (font (size 1.27 1.27))))
        )
        (pin input line (at -7.62 -2.54 0) (length 3.81)
          (name "~" (effects (font (size 1.27 1.27))))
          (number "5" (effects (font (size 1.27 1.27))))
        )
        (pin output inverted (at 7.62 0 180) (length 3.81)
          (name "~" (effects (font (size 1.27 1.27))))
          (number "6" (effects (font (size 1.27 1.27))))
        )
      )
      (symbol "SN74HC132DR-tedy_library_2_2"
        (arc (start -3.81 -3.81) (mid -2.589 0) (end -3.81 3.81)
          (stroke (width 0.254) (type solid))
          (fill (type none))
        )
        (arc (start -0.6096 -3.81) (mid 2.1842 -2.5851) (end 3.81 0)
          (stroke (width 0.254) (type solid))
          (fill (type background))
        )
        (polyline
          (pts
            (xy -3.81 -3.81)
            (xy -0.635 -3.81)
          )
          (stroke (width 0.254) (type solid))
          (fill (type background))
        )
        (polyline
          (pts
            (xy -3.81 3.81)
            (xy -0.635 3.81)
          )
          (stroke (width 0.254) (type solid))
          (fill (type background))
        )
        (polyline
          (pts
            (xy -0.635 3.81)
            (xy -3.81 3.81)
            (xy -3.81 3.81)
            (xy -3.556 3.4036)
            (xy -3.0226 2.2606)
            (xy -2.6924 1.0414)
            (xy -2.6162 -0.254)
            (xy -2.7686 -1.4986)
            (xy -3.175 -2.7178)
            (xy -3.81 -3.81)
            (xy -3.81 -3.81)
            (xy -0.635 -3.81)
          )
          (stroke (width -25.4) (type solid))
          (fill (type background))
        )
        (arc (start 3.81 0) (mid 2.1915 2.5936) (end -0.6096 3.81)
          (stroke (width 0.254) (type solid))
          (fill (type background))
        )
        (pin input inverted (at -7.62 2.54 0) (length 4.318)
          (name "~" (effects (font (size 1.27 1.27))))
          (number "4" (effects (font (size 1.27 1.27))))
        )
        (pin input inverted (at -7.62 -2.54 0) (length 4.318)
          (name "~" (effects (font (size 1.27 1.27))))
          (number "5" (effects (font (size 1.27 1.27))))
        )
        (pin output line (at 7.62 0 180) (length 3.81)
          (name "~" (effects (font (size 1.27 1.27))))
          (number "6" (effects (font (size 1.27 1.27))))
        )
      )
      (symbol "SN74HC132DR-tedy_library_3_0"
        (polyline
          (pts
            (xy -0.635 -1.27)
            (xy -0.635 1.27)
            (xy 0.635 1.27)
          )
          (stroke (width 0) (type solid))
          (fill (type none))
        )
        (polyline
          (pts
            (xy -0.635 -1.27)
            (xy -0.635 1.27)
            (xy 0.635 1.27)
          )
          (stroke (width 0) (type solid))
          (fill (type none))
        )
        (polyline
          (pts
            (xy -1.27 -1.27)
            (xy 0.635 -1.27)
            (xy 0.635 1.27)
            (xy 1.27 1.27)
          )
          (stroke (width 0) (type solid))
          (fill (type none))
        )
        (polyline
          (pts
            (xy -1.27 -1.27)
            (xy 0.635 -1.27)
            (xy 0.635 1.27)
            (xy 1.27 1.27)
          )
          (stroke (width 0) (type solid))
          (fill (type none))
        )
      )
      (symbol "SN74HC132DR-tedy_library_3_1"
        (arc (start 0 -3.81) (mid 3.7934 0) (end 0 3.81)
          (stroke (width 0.254) (type solid))
          (fill (type background))
        )
        (polyline
          (pts
            (xy 0 3.81)
            (xy -3.81 3.81)
            (xy -3.81 -3.81)
            (xy 0 -3.81)
          )
          (stroke (width 0.254) (type solid))
          (fill (type background))
        )
        (pin input line (at -7.62 2.54 0) (length 3.81)
          (name "~" (effects (font (size 1.27 1.27))))
          (number "10" (effects (font (size 1.27 1.27))))
        )
        (pin output inverted (at 7.62 0 180) (length 3.81)
          (name "~" (effects (font (size 1.27 1.27))))
          (number "8" (effects (font (size 1.27 1.27))))
        )
        (pin input line (at -7.62 -2.54 0) (length 3.81)
          (name "~" (effects (font (size 1.27 1.27))))
          (number "9" (effects (font (size 1.27 1.27))))
        )
      )
      (symbol "SN74HC132DR-tedy_library_3_2"
        (arc (start -3.81 -3.81) (mid -2.589 0) (end -3.81 3.81)
          (stroke (width 0.254) (type solid))
          (fill (type none))
        )
        (arc (start -0.6096 -3.81) (mid 2.1842 -2.5851) (end 3.81 0)
          (stroke (width 0.254) (type solid))
          (fill (type background))
        )
        (polyline
          (pts
            (xy -3.81 -3.81)
            (xy -0.635 -3.81)
          )
          (stroke (width 0.254) (type solid))
          (fill (type background))
        )
        (polyline
          (pts
            (xy -3.81 3.81)
            (xy -0.635 3.81)
          )
          (stroke (width 0.254) (type solid))
          (fill (type background))
        )
        (polyline
          (pts
            (xy -0.635 3.81)
            (xy -3.81 3.81)
            (xy -3.81 3.81)
            (xy -3.556 3.4036)
            (xy -3.0226 2.2606)
            (xy -2.6924 1.0414)
            (xy -2.6162 -0.254)
            (xy -2.7686 -1.4986)
            (xy -3.175 -2.7178)
            (xy -3.81 -3.81)
            (xy -3.81 -3.81)
            (xy -0.635 -3.81)
          )
          (stroke (width -25.4) (type solid))
          (fill (type background))
        )
        (arc (start 3.81 0) (mid 2.1915 2.5936) (end -0.6096 3.81)
          (stroke (width 0.254) (type solid))
          (fill (type background))
        )
        (pin input inverted (at -7.62 2.54 0) (length 4.318)
          (name "~" (effects (font (size 1.27 1.27))))
          (number "10" (effects (font (size 1.27 1.27))))
        )
        (pin output line (at 7.62 0 180) (length 3.81)
          (name "~" (effects (font (size 1.27 1.27))))
          (number "8" (effects (font (size 1.27 1.27))))
        )
        (pin input inverted (at -7.62 -2.54 0) (length 4.318)
          (name "~" (effects (font (size 1.27 1.27))))
          (number "9" (effects (font (size 1.27 1.27))))
        )
      )
      (symbol "SN74HC132DR-tedy_library_4_0"
        (polyline
          (pts
            (xy -0.635 -1.27)
            (xy -0.635 1.27)
            (xy 0.635 1.27)
          )
          (stroke (width 0) (type solid))
          (fill (type none))
        )
        (polyline
          (pts
            (xy -0.635 -1.27)
            (xy -0.635 1.27)
            (xy 0.635 1.27)
          )
          (stroke (width 0) (type solid))
          (fill (type none))
        )
        (polyline
          (pts
            (xy -1.27 -1.27)
            (xy 0.635 -1.27)
            (xy 0.635 1.27)
            (xy 1.27 1.27)
          )
          (stroke (width 0) (type solid))
          (fill (type none))
        )
        (polyline
          (pts
            (xy -1.27 -1.27)
            (xy 0.635 -1.27)
            (xy 0.635 1.27)
            (xy 1.27 1.27)
          )
          (stroke (width 0) (type solid))
          (fill (type none))
        )
      )
      (symbol "SN74HC132DR-tedy_library_4_1"
        (arc (start 0 -3.81) (mid 3.7934 0) (end 0 3.81)
          (stroke (width 0.254) (type solid))
          (fill (type background))
        )
        (polyline
          (pts
            (xy 0 3.81)
            (xy -3.81 3.81)
            (xy -3.81 -3.81)
            (xy 0 -3.81)
          )
          (stroke (width 0.254) (type solid))
          (fill (type background))
        )
        (pin output inverted (at 7.62 0 180) (length 3.81)
          (name "~" (effects (font (size 1.27 1.27))))
          (number "11" (effects (font (size 1.27 1.27))))
        )
        (pin input line (at -7.62 2.54 0) (length 3.81)
          (name "~" (effects (font (size 1.27 1.27))))
          (number "12" (effects (font (size 1.27 1.27))))
        )
        (pin input line (at -7.62 -2.54 0) (length 3.81)
          (name "~" (effects (font (size 1.27 1.27))))
          (number "13" (effects (font (size 1.27 1.27))))
        )
      )
      (symbol "SN74HC132DR-tedy_library_4_2"
        (arc (start -3.81 -3.81) (mid -2.589 0) (end -3.81 3.81)
          (stroke (width 0.254) (type solid))
          (fill (type none))
        )
        (arc (start -0.6096 -3.81) (mid 2.1842 -2.5851) (end 3.81 0)
          (stroke (width 0.254) (type solid))
          (fill (type background))
        )
        (polyline
          (pts
            (xy -3.81 -3.81)
            (xy -0.635 -3.81)
          )
          (stroke (width 0.254) (type solid))
          (fill (type background))
        )
        (polyline
          (pts
            (xy -3.81 3.81)
            (xy -0.635 3.81)
          )
          (stroke (width 0.254) (type solid))
          (fill (type background))
        )
        (polyline
          (pts
            (xy -0.635 3.81)
            (xy -3.81 3.81)
            (xy -3.81 3.81)
            (xy -3.556 3.4036)
            (xy -3.0226 2.2606)
            (xy -2.6924 1.0414)
            (xy -2.6162 -0.254)
            (xy -2.7686 -1.4986)
            (xy -3.175 -2.7178)
            (xy -3.81 -3.81)
            (xy -3.81 -3.81)
            (xy -0.635 -3.81)
          )
          (stroke (width -25.4) (type solid))
          (fill (type background))
        )
        (arc (start 3.81 0) (mid 2.1915 2.5936) (end -0.6096 3.81)
          (stroke (width 0.254) (type solid))
          (fill (type background))
        )
        (pin output line (at 7.62 0 180) (length 3.81)
          (name "~" (effects (font (size 1.27 1.27))))
          (number "11" (effects (font (size 1.27 1.27))))
        )
        (pin input inverted (at -7.62 2.54 0) (length 4.318)
          (name "~" (effects (font (size 1.27 1.27))))
          (number "12" (effects (font (size 1.27 1.27))))
        )
        (pin input inverted (at -7.62 -2.54 0) (length 4.318)
          (name "~" (effects (font (size 1.27 1.27))))
          (number "13" (effects (font (size 1.27 1.27))))
        )
      )
      (symbol "SN74HC132DR-tedy_library_5_0"
        (pin power_in line (at 0 12.7 270) (length 5.08)
          (name "VCC" (effects (font (size 1.27 1.27))))
          (number "14" (effects (font (size 1.27 1.27))))
        )
        (pin power_in line (at 0 -12.7 90) (length 5.08)
          (name "GND" (effects (font (size 1.27 1.27))))
          (number "7" (effects (font (size 1.27 1.27))))
        )
      )
      (symbol "SN74HC132DR-tedy_library_5_1"
        (rectangle (start -5.08 7.62) (end 5.08 -7.62)
          (stroke (width 0.254) (type solid))
          (fill (type background))
        )
      )
    )
    (symbol "Connector_Generic:Conn_01x03" (pin_names (offset 1.016) hide) (in_bom yes) (on_board yes)
      (property "Reference" "J" (at 0 5.08 0)
        (effects (font (size 1.27 1.27)))
      )
      (property "Value" "Conn_01x03" (at 0 -5.08 0)
        (effects (font (size 1.27 1.27)))
      )
      (property "Footprint" "" (at 0 0 0)
        (effects (font (size 1.27 1.27)) hide)
      )
      (property "Datasheet" "~" (at 0 0 0)
        (effects (font (size 1.27 1.27)) hide)
      )
      (property "ki_keywords" "connector" (at 0 0 0)
        (effects (font (size 1.27 1.27)) hide)
      )
      (property "ki_description" "Generic connector, single row, 01x03, script generated (kicad-library-utils/schlib/autogen/connector/)" (at 0 0 0)
        (effects (font (size 1.27 1.27)) hide)
      )
      (property "ki_fp_filters" "Connector*:*_1x??_*" (at 0 0 0)
        (effects (font (size 1.27 1.27)) hide)
      )
      (symbol "Conn_01x03_1_1"
        (rectangle (start -1.27 -2.413) (end 0 -2.667)
          (stroke (width 0.1524) (type default))
          (fill (type none))
        )
        (rectangle (start -1.27 0.127) (end 0 -0.127)
          (stroke (width 0.1524) (type default))
          (fill (type none))
        )
        (rectangle (start -1.27 2.667) (end 0 2.413)
          (stroke (width 0.1524) (type default))
          (fill (type none))
        )
        (rectangle (start -1.27 3.81) (end 1.27 -3.81)
          (stroke (width 0.254) (type default))
          (fill (type background))
        )
        (pin passive line (at -5.08 2.54 0) (length 3.81)
          (name "Pin_1" (effects (font (size 1.27 1.27))))
          (number "1" (effects (font (size 1.27 1.27))))
        )
        (pin passive line (at -5.08 0 0) (length 3.81)
          (name "Pin_2" (effects (font (size 1.27 1.27))))
          (number "2" (effects (font (size 1.27 1.27))))
        )
        (pin passive line (at -5.08 -2.54 0) (length 3.81)
          (name "Pin_3" (effects (font (size 1.27 1.27))))
          (number "3" (effects (font (size 1.27 1.27))))
        )
      )
    )
    (symbol "Connector_Generic:Conn_01x04" (pin_names (offset 1.016) hide) (in_bom yes) (on_board yes)
      (property "Reference" "J" (at 0 5.08 0)
        (effects (font (size 1.27 1.27)))
      )
      (property "Value" "Conn_01x04" (at 0 -7.62 0)
        (effects (font (size 1.27 1.27)))
      )
      (property "Footprint" "" (at 0 0 0)
        (effects (font (size 1.27 1.27)) hide)
      )
      (property "Datasheet" "~" (at 0 0 0)
        (effects (font (size 1.27 1.27)) hide)
      )
      (property "ki_keywords" "connector" (at 0 0 0)
        (effects (font (size 1.27 1.27)) hide)
      )
      (property "ki_description" "Generic connector, single row, 01x04, script generated (kicad-library-utils/schlib/autogen/connector/)" (at 0 0 0)
        (effects (font (size 1.27 1.27)) hide)
      )
      (property "ki_fp_filters" "Connector*:*_1x??_*" (at 0 0 0)
        (effects (font (size 1.27 1.27)) hide)
      )
      (symbol "Conn_01x04_1_1"
        (rectangle (start -1.27 -4.953) (end 0 -5.207)
          (stroke (width 0.1524) (type default))
          (fill (type none))
        )
        (rectangle (start -1.27 -2.413) (end 0 -2.667)
          (stroke (width 0.1524) (type default))
          (fill (type none))
        )
        (rectangle (start -1.27 0.127) (end 0 -0.127)
          (stroke (width 0.1524) (type default))
          (fill (type none))
        )
        (rectangle (start -1.27 2.667) (end 0 2.413)
          (stroke (width 0.1524) (type default))
          (fill (type none))
        )
        (rectangle (start -1.27 3.81) (end 1.27 -6.35)
          (stroke (width 0.254) (type default))
          (fill (type background))
        )
        (pin passive line (at -5.08 2.54 0) (length 3.81)
          (name "Pin_1" (effects (font (size 1.27 1.27))))
          (number "1" (effects (font (size 1.27 1.27))))
        )
        (pin passive line (at -5.08 0 0) (length 3.81)
          (name "Pin_2" (effects (font (size 1.27 1.27))))
          (number "2" (effects (font (size 1.27 1.27))))
        )
        (pin passive line (at -5.08 -2.54 0) (length 3.81)
          (name "Pin_3" (effects (font (size 1.27 1.27))))
          (number "3" (effects (font (size 1.27 1.27))))
        )
        (pin passive line (at -5.08 -5.08 0) (length 3.81)
          (name "Pin_4" (effects (font (size 1.27 1.27))))
          (number "4" (effects (font (size 1.27 1.27))))
        )
      )
    )
    (symbol "Connector_Generic:Conn_01x05" (pin_names (offset 1.016) hide) (in_bom yes) (on_board yes)
      (property "Reference" "J" (at 0 7.62 0)
        (effects (font (size 1.27 1.27)))
      )
      (property "Value" "Conn_01x05" (at 0 -7.62 0)
        (effects (font (size 1.27 1.27)))
      )
      (property "Footprint" "" (at 0 0 0)
        (effects (font (size 1.27 1.27)) hide)
      )
      (property "Datasheet" "~" (at 0 0 0)
        (effects (font (size 1.27 1.27)) hide)
      )
      (property "ki_keywords" "connector" (at 0 0 0)
        (effects (font (size 1.27 1.27)) hide)
      )
      (property "ki_description" "Generic connector, single row, 01x05, script generated (kicad-library-utils/schlib/autogen/connector/)" (at 0 0 0)
        (effects (font (size 1.27 1.27)) hide)
      )
      (property "ki_fp_filters" "Connector*:*_1x??_*" (at 0 0 0)
        (effects (font (size 1.27 1.27)) hide)
      )
      (symbol "Conn_01x05_1_1"
        (rectangle (start -1.27 -4.953) (end 0 -5.207)
          (stroke (width 0.1524) (type default))
          (fill (type none))
        )
        (rectangle (start -1.27 -2.413) (end 0 -2.667)
          (stroke (width 0.1524) (type default))
          (fill (type none))
        )
        (rectangle (start -1.27 0.127) (end 0 -0.127)
          (stroke (width 0.1524) (type default))
          (fill (type none))
        )
        (rectangle (start -1.27 2.667) (end 0 2.413)
          (stroke (width 0.1524) (type default))
          (fill (type none))
        )
        (rectangle (start -1.27 5.207) (end 0 4.953)
          (stroke (width 0.1524) (type default))
          (fill (type none))
        )
        (rectangle (start -1.27 6.35) (end 1.27 -6.35)
          (stroke (width 0.254) (type default))
          (fill (type background))
        )
        (pin passive line (at -5.08 5.08 0) (length 3.81)
          (name "Pin_1" (effects (font (size 1.27 1.27))))
          (number "1" (effects (font (size 1.27 1.27))))
        )
        (pin passive line (at -5.08 2.54 0) (length 3.81)
          (name "Pin_2" (effects (font (size 1.27 1.27))))
          (number "2" (effects (font (size 1.27 1.27))))
        )
        (pin passive line (at -5.08 0 0) (length 3.81)
          (name "Pin_3" (effects (font (size 1.27 1.27))))
          (number "3" (effects (font (size 1.27 1.27))))
        )
        (pin passive line (at -5.08 -2.54 0) (length 3.81)
          (name "Pin_4" (effects (font (size 1.27 1.27))))
          (number "4" (effects (font (size 1.27 1.27))))
        )
        (pin passive line (at -5.08 -5.08 0) (length 3.81)
          (name "Pin_5" (effects (font (size 1.27 1.27))))
          (number "5" (effects (font (size 1.27 1.27))))
        )
      )
    )
    (symbol "Connector_Generic:Conn_01x06" (pin_names (offset 1.016) hide) (in_bom yes) (on_board yes)
      (property "Reference" "J" (at 0 7.62 0)
        (effects (font (size 1.27 1.27)))
      )
      (property "Value" "Conn_01x06" (at 0 -10.16 0)
        (effects (font (size 1.27 1.27)))
      )
      (property "Footprint" "" (at 0 0 0)
        (effects (font (size 1.27 1.27)) hide)
      )
      (property "Datasheet" "~" (at 0 0 0)
        (effects (font (size 1.27 1.27)) hide)
      )
      (property "ki_keywords" "connector" (at 0 0 0)
        (effects (font (size 1.27 1.27)) hide)
      )
      (property "ki_description" "Generic connector, single row, 01x06, script generated (kicad-library-utils/schlib/autogen/connector/)" (at 0 0 0)
        (effects (font (size 1.27 1.27)) hide)
      )
      (property "ki_fp_filters" "Connector*:*_1x??_*" (at 0 0 0)
        (effects (font (size 1.27 1.27)) hide)
      )
      (symbol "Conn_01x06_1_1"
        (rectangle (start -1.27 -7.493) (end 0 -7.747)
          (stroke (width 0.1524) (type default))
          (fill (type none))
        )
        (rectangle (start -1.27 -4.953) (end 0 -5.207)
          (stroke (width 0.1524) (type default))
          (fill (type none))
        )
        (rectangle (start -1.27 -2.413) (end 0 -2.667)
          (stroke (width 0.1524) (type default))
          (fill (type none))
        )
        (rectangle (start -1.27 0.127) (end 0 -0.127)
          (stroke (width 0.1524) (type default))
          (fill (type none))
        )
        (rectangle (start -1.27 2.667) (end 0 2.413)
          (stroke (width 0.1524) (type default))
          (fill (type none))
        )
        (rectangle (start -1.27 5.207) (end 0 4.953)
          (stroke (width 0.1524) (type default))
          (fill (type none))
        )
        (rectangle (start -1.27 6.35) (end 1.27 -8.89)
          (stroke (width 0.254) (type default))
          (fill (type background))
        )
        (pin passive line (at -5.08 5.08 0) (length 3.81)
          (name "Pin_1" (effects (font (size 1.27 1.27))))
          (number "1" (effects (font (size 1.27 1.27))))
        )
        (pin passive line (at -5.08 2.54 0) (length 3.81)
          (name "Pin_2" (effects (font (size 1.27 1.27))))
          (number "2" (effects (font (size 1.27 1.27))))
        )
        (pin passive line (at -5.08 0 0) (length 3.81)
          (name "Pin_3" (effects (font (size 1.27 1.27))))
          (number "3" (effects (font (size 1.27 1.27))))
        )
        (pin passive line (at -5.08 -2.54 0) (length 3.81)
          (name "Pin_4" (effects (font (size 1.27 1.27))))
          (number "4" (effects (font (size 1.27 1.27))))
        )
        (pin passive line (at -5.08 -5.08 0) (length 3.81)
          (name "Pin_5" (effects (font (size 1.27 1.27))))
          (number "5" (effects (font (size 1.27 1.27))))
        )
        (pin passive line (at -5.08 -7.62 0) (length 3.81)
          (name "Pin_6" (effects (font (size 1.27 1.27))))
          (number "6" (effects (font (size 1.27 1.27))))
        )
      )
    )
    (symbol "Device:R" (pin_numbers hide) (pin_names (offset 0)) (in_bom yes) (on_board yes)
      (property "Reference" "R" (at 2.032 0 90)
        (effects (font (size 1.27 1.27)))
      )
      (property "Value" "R" (at 0 0 90)
        (effects (font (size 1.27 1.27)))
      )
      (property "Footprint" "" (at -1.778 0 90)
        (effects (font (size 1.27 1.27)) hide)
      )
      (property "Datasheet" "~" (at 0 0 0)
        (effects (font (size 1.27 1.27)) hide)
      )
      (property "ki_keywords" "R res resistor" (at 0 0 0)
        (effects (font (size 1.27 1.27)) hide)
      )
      (property "ki_description" "Resistor" (at 0 0 0)
        (effects (font (size 1.27 1.27)) hide)
      )
      (property "ki_fp_filters" "R_*" (at 0 0 0)
        (effects (font (size 1.27 1.27)) hide)
      )
      (symbol "R_0_1"
        (rectangle (start -1.016 -2.54) (end 1.016 2.54)
          (stroke (width 0.254) (type default))
          (fill (type none))
        )
      )
      (symbol "R_1_1"
        (pin passive line (at 0 3.81 270) (length 1.27)
          (name "~" (effects (font (size 1.27 1.27))))
          (number "1" (effects (font (size 1.27 1.27))))
        )
        (pin passive line (at 0 -3.81 90) (length 1.27)
          (name "~" (effects (font (size 1.27 1.27))))
          (number "2" (effects (font (size 1.27 1.27))))
        )
      )
    )
    (symbol "power:+12V" (power) (pin_names (offset 0)) (in_bom yes) (on_board yes)
      (property "Reference" "#PWR" (at 0 -3.81 0)
        (effects (font (size 1.27 1.27)) hide)
      )
      (property "Value" "+12V" (at 0 3.556 0)
        (effects (font (size 1.27 1.27)))
      )
      (property "Footprint" "" (at 0 0 0)
        (effects (font (size 1.27 1.27)) hide)
      )
      (property "Datasheet" "" (at 0 0 0)
        (effects (font (size 1.27 1.27)) hide)
      )
      (property "ki_keywords" "power-flag" (at 0 0 0)
        (effects (font (size 1.27 1.27)) hide)
      )
      (property "ki_description" "Power symbol creates a global label with name \"+12V\"" (at 0 0 0)
        (effects (font (size 1.27 1.27)) hide)
      )
      (symbol "+12V_0_1"
        (polyline
          (pts
            (xy -0.762 1.27)
            (xy 0 2.54)
          )
          (stroke (width 0) (type default))
          (fill (type none))
        )
        (polyline
          (pts
            (xy 0 0)
            (xy 0 2.54)
          )
          (stroke (width 0) (type default))
          (fill (type none))
        )
        (polyline
          (pts
            (xy 0 2.54)
            (xy 0.762 1.27)
          )
          (stroke (width 0) (type default))
          (fill (type none))
        )
      )
      (symbol "+12V_1_1"
        (pin power_in line (at 0 0 90) (length 0) hide
          (name "+12V" (effects (font (size 1.27 1.27))))
          (number "1" (effects (font (size 1.27 1.27))))
        )
      )
    )
    (symbol "power:+5V" (power) (pin_names (offset 0)) (in_bom yes) (on_board yes)
      (property "Reference" "#PWR" (at 0 -3.81 0)
        (effects (font (size 1.27 1.27)) hide)
      )
      (property "Value" "+5V" (at 0 3.556 0)
        (effects (font (size 1.27 1.27)))
      )
      (property "Footprint" "" (at 0 0 0)
        (effects (font (size 1.27 1.27)) hide)
      )
      (property "Datasheet" "" (at 0 0 0)
        (effects (font (size 1.27 1.27)) hide)
      )
      (property "ki_keywords" "power-flag" (at 0 0 0)
        (effects (font (size 1.27 1.27)) hide)
      )
      (property "ki_description" "Power symbol creates a global label with name \"+5V\"" (at 0 0 0)
        (effects (font (size 1.27 1.27)) hide)
      )
      (symbol "+5V_0_1"
        (polyline
          (pts
            (xy -0.762 1.27)
            (xy 0 2.54)
          )
          (stroke (width 0) (type default))
          (fill (type none))
        )
        (polyline
          (pts
            (xy 0 0)
            (xy 0 2.54)
          )
          (stroke (width 0) (type default))
          (fill (type none))
        )
        (polyline
          (pts
            (xy 0 2.54)
            (xy 0.762 1.27)
          )
          (stroke (width 0) (type default))
          (fill (type none))
        )
      )
      (symbol "+5V_1_1"
        (pin power_in line (at 0 0 90) (length 0) hide
          (name "+5V" (effects (font (size 1.27 1.27))))
          (number "1" (effects (font (size 1.27 1.27))))
        )
      )
    )
    (symbol "power:GND" (power) (pin_names (offset 0)) (in_bom yes) (on_board yes)
      (property "Reference" "#PWR" (at 0 -6.35 0)
        (effects (font (size 1.27 1.27)) hide)
      )
      (property "Value" "GND" (at 0 -3.81 0)
        (effects (font (size 1.27 1.27)))
      )
      (property "Footprint" "" (at 0 0 0)
        (effects (font (size 1.27 1.27)) hide)
      )
      (property "Datasheet" "" (at 0 0 0)
        (effects (font (size 1.27 1.27)) hide)
      )
      (property "ki_keywords" "power-flag" (at 0 0 0)
        (effects (font (size 1.27 1.27)) hide)
      )
      (property "ki_description" "Power symbol creates a global label with name \"GND\" , ground" (at 0 0 0)
        (effects (font (size 1.27 1.27)) hide)
      )
      (symbol "GND_0_1"
        (polyline
          (pts
            (xy 0 0)
            (xy 0 -1.27)
            (xy 1.27 -1.27)
            (xy 0 -2.54)
            (xy -1.27 -1.27)
            (xy 0 -1.27)
          )
          (stroke (width 0) (type default))
          (fill (type none))
        )
      )
      (symbol "GND_1_1"
        (pin power_in line (at 0 0 270) (length 0) hide
          (name "GND" (effects (font (size 1.27 1.27))))
          (number "1" (effects (font (size 1.27 1.27))))
        )
      )
    )
  )

  (junction (at 261.62 153.035) (diameter 0) (color 0 0 0 0)
    (uuid 10482406-4e9a-4739-a5e9-4a04e38a46e4)
  )
  (junction (at 107.569 40.894) (diameter 0) (color 0 0 0 0)
    (uuid 21f18106-0267-464f-a76b-7bc89e28fd6d)
  )
  (junction (at 261.62 137.795) (diameter 0) (color 0 0 0 0)
    (uuid 26c9f2f2-0cfe-4a90-a60c-7041842e6df5)
  )
  (junction (at 110.109 84.709) (diameter 0) (color 0 0 0 0)
    (uuid 2bd1cedb-bdba-48ba-b23a-e01757a652f4)
  )
  (junction (at 117.729 81.534) (diameter 0) (color 0 0 0 0)
    (uuid 33825286-c0e0-4385-9ec3-dad45421950c)
  )
  (junction (at 120.269 40.894) (diameter 0) (color 0 0 0 0)
    (uuid 341b3104-64d1-483a-a5f1-c4ee290da64b)
  )
  (junction (at 112.395 168.91) (diameter 0) (color 0 0 0 0)
    (uuid 528990b3-3a21-4eef-bd41-ea0958582c08)
  )
  (junction (at 76.454 118.11) (diameter 0) (color 0 0 0 0)
    (uuid 561c0cb7-780c-4df8-9482-93729a740c4e)
  )
  (junction (at 169.799 112.014) (diameter 0) (color 0 0 0 0)
    (uuid 6dd6445e-aebf-4d5a-911d-58ad46811808)
  )
  (junction (at 112.395 166.37) (diameter 0) (color 0 0 0 0)
    (uuid 7a1ba304-bd4a-4c72-b538-fb628d980778)
  )
  (junction (at 114.808 113.03) (diameter 0) (color 0 0 0 0)
    (uuid 7f49795c-33c5-489b-a22d-408516f7d2ee)
  )
  (junction (at 76.454 110.49) (diameter 0) (color 0 0 0 0)
    (uuid 9a316f64-0264-4d08-94cd-fbe6524daac8)
  )
  (junction (at 235.204 89.154) (diameter 0) (color 0 0 0 0)
    (uuid 9eff4569-e8ac-4777-ab2a-d0b57ee97c60)
  )
  (junction (at 110.109 40.894) (diameter 0) (color 0 0 0 0)
    (uuid a699f79e-edd0-441d-acb7-d644e38adb4f)
  )
  (junction (at 112.649 40.894) (diameter 0) (color 0 0 0 0)
    (uuid a79df643-bc22-4d67-b1b3-352083ded05c)
  )
  (junction (at 114.808 120.65) (diameter 0) (color 0 0 0 0)
    (uuid a8582144-b318-404d-9eb6-c8b58dd6784c)
  )
  (junction (at 112.395 163.83) (diameter 0) (color 0 0 0 0)
    (uuid ada67706-55b6-45fb-88b5-f69b133884e9)
  )
  (junction (at 261.62 147.955) (diameter 0) (color 0 0 0 0)
    (uuid ae652b2f-20f4-4dc2-ab40-1391e8dd35c0)
  )
  (junction (at 117.729 40.894) (diameter 0) (color 0 0 0 0)
    (uuid bb1e51c2-16b4-4dc0-a098-6608aa76beec)
  )
  (junction (at 235.204 76.454) (diameter 0) (color 0 0 0 0)
    (uuid d999a15a-8f54-4532-8835-c9f43e2d5ea9)
  )
  (junction (at 115.189 40.894) (diameter 0) (color 0 0 0 0)
    (uuid df36e26b-71fe-4549-876f-ffcf51471fd6)
  )
  (junction (at 214.884 68.834) (diameter 0) (color 0 0 0 0)
    (uuid e91e3a88-c1d5-484f-b030-0bfb1d06262f)
  )
  (junction (at 107.569 75.184) (diameter 0) (color 0 0 0 0)
    (uuid ec54c3f5-b49c-4731-ae21-add2c211e65d)
  )

  (no_connect (at 114.808 110.49) (uuid 192b7e3b-c17a-46ac-af01-b5ed9ea8a0df))
  (no_connect (at 76.454 113.03) (uuid 21af75a3-3db8-430d-ad16-67b48e06f6cd))
  (no_connect (at 114.808 118.11) (uuid 3840b7fd-03d7-42d9-95bb-a8122ff125a8))
  (no_connect (at 276.86 135.255) (uuid 4423e61e-ccdc-4256-af6b-507fbc803d06))
  (no_connect (at 276.86 150.495) (uuid 491930a7-e06f-41c5-94d8-db1e7f9f712f))
  (no_connect (at 123.952 118.11) (uuid 6c30e1ea-d46f-4851-b28c-7fb67081cc3b))
  (no_connect (at 66.294 115.57) (uuid 99030e2e-d1d5-4582-83bc-a3ae2c5c438a))
  (no_connect (at 123.952 115.57) (uuid c16d132b-c95d-4083-aa40-ceb755d80f60))
  (no_connect (at 123.952 110.49) (uuid ccb2920e-7124-4cd0-83bc-58589dd11c9e))
  (no_connect (at 76.454 115.57) (uuid e78171ab-d3c0-4ff5-bac4-8aedf512d630))
  (no_connect (at 114.808 115.57) (uuid ec5fe5f1-a141-465f-9f2e-ac745e11a4ff))
  (no_connect (at 66.294 113.03) (uuid fed8084c-12fa-48be-9ec9-a7b40c27960f))

  (wire (pts (xy 214.884 66.294) (xy 214.884 68.834))
    (stroke (width 0) (type default))
    (uuid 0036488f-69f7-4224-976c-613e0b466954)
  )
  (wire (pts (xy 114.808 113.03) (xy 123.952 113.03))
    (stroke (width 0) (type default))
    (uuid 01663870-551d-4c47-85d8-36a6fe7380b3)
  )
  (wire (pts (xy 78.994 68.834) (xy 136.144 68.834))
    (stroke (width 0) (type default))
    (uuid 017f6a6d-f120-4f30-a351-4b3df80548b1)
  )
  (wire (pts (xy 128.524 42.799) (xy 128.524 48.514))
    (stroke (width 0) (type default))
    (uuid 08e0d554-5131-4396-b49b-5b9c68838b5e)
  )
  (wire (pts (xy 261.62 137.795) (xy 261.62 147.955))
    (stroke (width 0) (type default))
    (uuid 0b5a903c-ffb5-49ac-832d-7e214341a4ee)
  )
  (wire (pts (xy 78.994 49.784) (xy 136.144 49.784))
    (stroke (width 0) (type default))
    (uuid 0bdcd717-6cd6-4e97-8974-7e4762dafbd3)
  )
  (wire (pts (xy 78.994 62.484) (xy 136.144 62.484))
    (stroke (width 0) (type default))
    (uuid 0c37c269-df80-404b-bf37-a321cb777ea3)
  )
  (wire (pts (xy 128.524 48.514) (xy 112.649 48.514))
    (stroke (width 0) (type default))
    (uuid 0d8833b6-bf83-4b3f-8a89-be26eb6f6006)
  )
  (wire (pts (xy 112.649 40.894) (xy 112.649 48.514))
    (stroke (width 0) (type default))
    (uuid 0fbfd0b3-a792-46e0-b3e6-187ee9a6265b)
  )
  (wire (pts (xy 66.294 110.49) (xy 76.454 110.49))
    (stroke (width 0) (type default))
    (uuid 10586642-58cf-4a67-9457-d23150b721a3)
  )
  (wire (pts (xy 214.884 56.769) (xy 214.884 58.674))
    (stroke (width 0) (type default))
    (uuid 1129a2f1-71d7-4c33-a6fd-e1651353272e)
  )
  (wire (pts (xy 214.884 91.694) (xy 214.884 68.834))
    (stroke (width 0) (type default))
    (uuid 14878e50-32e0-4613-8e7c-5de8f707cbf5)
  )
  (wire (pts (xy 261.62 147.955) (xy 261.62 153.035))
    (stroke (width 0) (type default))
    (uuid 172c079f-21c1-454b-9e1b-fed2e04c9601)
  )
  (wire (pts (xy 120.269 40.894) (xy 120.269 42.799))
    (stroke (width 0) (type default))
    (uuid 18c920fd-975b-46e7-a3ad-f6f2a8311963)
  )
  (wire (pts (xy 117.729 81.534) (xy 117.729 100.584))
    (stroke (width 0) (type default))
    (uuid 1927d484-d6d5-4e03-b430-5d636094469d)
  )
  (wire (pts (xy 110.109 40.894) (xy 110.109 84.709))
    (stroke (width 0) (type default))
    (uuid 1ad69c1c-e9c1-442b-a4d1-0b84efb32b3b)
  )
  (wire (pts (xy 214.884 68.834) (xy 206.629 68.834))
    (stroke (width 0) (type default))
    (uuid 1beaba5e-98fb-43df-81d5-850b71b76ca9)
  )
  (wire (pts (xy 107.95 166.37) (xy 107.95 170.18))
    (stroke (width 0) (type default))
    (uuid 22a31b32-51e9-4c21-b486-fa2ca6031433)
  )
  (wire (pts (xy 78.994 56.134) (xy 136.144 56.134))
    (stroke (width 0) (type default))
    (uuid 24b8e6b0-1f92-45e4-91a8-5b5d796e009a)
  )
  (wire (pts (xy 167.894 71.374) (xy 191.389 71.374))
    (stroke (width 0) (type default))
    (uuid 27828d88-2580-4b4e-b533-3e5633a13a34)
  )
  (wire (pts (xy 114.554 104.394) (xy 136.144 104.394))
    (stroke (width 0) (type default))
    (uuid 2e29d75a-65f0-4427-a707-86202bcc9365)
  )
  (wire (pts (xy 112.395 163.83) (xy 135.89 163.83))
    (stroke (width 0) (type default))
    (uuid 2e4ba39d-938f-4ea7-b1b4-91bcb8cf2e51)
  )
  (wire (pts (xy 110.744 113.538) (xy 110.744 113.03))
    (stroke (width 0) (type default))
    (uuid 2ee1737a-28cd-4f3e-9a99-438c2a74081d)
  )
  (wire (pts (xy 112.649 29.464) (xy 112.649 40.894))
    (stroke (width 0) (type default))
    (uuid 31daed5a-c6d8-4a9f-ab77-d014727badf0)
  )
  (wire (pts (xy 172.974 42.799) (xy 128.524 42.799))
    (stroke (width 0) (type default))
    (uuid 32dbb9bf-61a8-4451-826f-7c12929b9c2a)
  )
  (wire (pts (xy 107.569 75.184) (xy 136.144 75.184))
    (stroke (width 0) (type default))
    (uuid 34de9ff3-b3a9-44ae-8b08-ea610df43427)
  )
  (wire (pts (xy 172.974 53.594) (xy 172.974 42.799))
    (stroke (width 0) (type default))
    (uuid 39dd9e4a-6ab1-4944-a576-fa7f80535205)
  )
  (wire (pts (xy 76.454 110.49) (xy 82.55 110.49))
    (stroke (width 0) (type default))
    (uuid 3a0ba5f6-79b5-4fd0-ab7b-634f7610bf5e)
  )
  (wire (pts (xy 169.799 103.759) (xy 169.799 112.014))
    (stroke (width 0) (type default))
    (uuid 3a501972-8249-409f-b543-f3682f431245)
  )
  (wire (pts (xy 174.879 40.894) (xy 174.879 58.039))
    (stroke (width 0) (type default))
    (uuid 3c122e4e-b038-487f-a34b-4b874294c88a)
  )
  (wire (pts (xy 76.454 118.11) (xy 82.55 118.11))
    (stroke (width 0) (type default))
    (uuid 3db4a855-0b95-482a-b27d-604e89ebc1cb)
  )
  (wire (pts (xy 235.204 89.154) (xy 258.064 89.154))
    (stroke (width 0) (type default))
    (uuid 4150d8e5-87f1-49e7-9e86-5bb70259dfad)
  )
  (wire (pts (xy 110.998 120.65) (xy 114.808 120.65))
    (stroke (width 0) (type default))
    (uuid 41d52f2c-897c-4d4b-b237-bbb8bbc157b7)
  )
  (wire (pts (xy 107.95 166.37) (xy 112.395 166.37))
    (stroke (width 0) (type default))
    (uuid 436b3bab-81e0-4daf-ab86-8354df2d5940)
  )
  (wire (pts (xy 59.182 101.854) (xy 59.182 105.156))
    (stroke (width 0) (type default))
    (uuid 45b8ea8f-428b-4828-a2c6-86823458e2ba)
  )
  (wire (pts (xy 126.619 47.879) (xy 115.189 47.879))
    (stroke (width 0) (type default))
    (uuid 4b6edb3a-013c-417e-8562-2011c5215197)
  )
  (wire (pts (xy 117.729 40.894) (xy 117.729 81.534))
    (stroke (width 0) (type default))
    (uuid 54123938-8adb-4ebe-b627-69009286a7d3)
  )
  (wire (pts (xy 167.894 53.594) (xy 172.974 53.594))
    (stroke (width 0) (type default))
    (uuid 55429c02-41e9-4c48-b1c5-27f4a53ee812)
  )
  (wire (pts (xy 78.994 75.184) (xy 107.569 75.184))
    (stroke (width 0) (type default))
    (uuid 561fad16-5ad9-4a97-bc42-faa02259fcaf)
  )
  (wire (pts (xy 165.989 103.759) (xy 169.799 103.759))
    (stroke (width 0) (type default))
    (uuid 5cdccfaa-64fd-48e0-921a-a7ed32559ce1)
  )
  (wire (pts (xy 78.994 81.534) (xy 117.729 81.534))
    (stroke (width 0) (type default))
    (uuid 5ec6cfb3-f61f-4103-bcb0-de7fa1aec9d6)
  )
  (wire (pts (xy 174.879 40.894) (xy 126.619 40.894))
    (stroke (width 0) (type default))
    (uuid 60f32ba8-ba47-430d-971e-e3922a580d31)
  )
  (wire (pts (xy 110.998 118.364) (xy 110.998 120.65))
    (stroke (width 0) (type default))
    (uuid 68996ceb-e231-455d-84ab-8b864f560bcd)
  )
  (wire (pts (xy 60.452 101.092) (xy 60.452 99.822))
    (stroke (width 0) (type default))
    (uuid 696b6ae3-d60c-4d4a-bcba-271502638d9e)
  )
  (wire (pts (xy 258.064 91.694) (xy 214.884 91.694))
    (stroke (width 0) (type default))
    (uuid 700c9d58-6750-418f-883c-fec8c04e6523)
  )
  (wire (pts (xy 114.808 120.65) (xy 123.952 120.65))
    (stroke (width 0) (type default))
    (uuid 712e13eb-347a-4bd4-a67b-6f1f92b38241)
  )
  (wire (pts (xy 165.989 108.204) (xy 188.849 108.204))
    (stroke (width 0) (type default))
    (uuid 736108a7-b6ac-42d0-9d12-167c910e9e21)
  )
  (wire (pts (xy 169.799 112.014) (xy 169.799 113.284))
    (stroke (width 0) (type default))
    (uuid 75387893-0caa-42d7-9175-c24751505164)
  )
  (wire (pts (xy 110.109 29.464) (xy 110.109 40.894))
    (stroke (width 0) (type default))
    (uuid 7ad92273-4310-4a53-8f8d-fac35153bf5a)
  )
  (wire (pts (xy 233.934 76.454) (xy 235.204 76.454))
    (stroke (width 0) (type default))
    (uuid 7d41fa70-8e89-4a45-89d9-bac007075e9d)
  )
  (wire (pts (xy 188.849 108.204) (xy 188.849 94.234))
    (stroke (width 0) (type default))
    (uuid 7fd8d2cd-7c5b-4516-8d87-d58be26d409a)
  )
  (wire (pts (xy 107.569 40.894) (xy 107.569 75.184))
    (stroke (width 0) (type default))
    (uuid 8751ac61-b58b-41c7-9935-cdf2ad30f6ce)
  )
  (wire (pts (xy 114.554 84.709) (xy 114.554 104.394))
    (stroke (width 0) (type default))
    (uuid 880b6128-d69e-487a-ab53-65e4db2f31a6)
  )
  (wire (pts (xy 78.994 84.709) (xy 110.109 84.709))
    (stroke (width 0) (type default))
    (uuid 9444c902-2914-4096-a415-632be45f39c5)
  )
  (wire (pts (xy 258.064 96.774) (xy 254.889 96.774))
    (stroke (width 0) (type default))
    (uuid 986ac27e-8e90-4e0d-a0a4-38cc323a56ce)
  )
  (wire (pts (xy 235.204 76.454) (xy 235.204 89.154))
    (stroke (width 0) (type default))
    (uuid 98919b9a-1958-45e1-a501-031f30d32f34)
  )
  (wire (pts (xy 115.189 40.894) (xy 115.189 47.879))
    (stroke (width 0) (type default))
    (uuid 99f25550-abfd-4a50-a366-b650acd5782c)
  )
  (wire (pts (xy 94.742 168.91) (xy 112.395 168.91))
    (stroke (width 0) (type default))
    (uuid 9a76a3b4-8b5d-4179-a37d-759b29d6d42e)
  )
  (wire (pts (xy 108.204 113.538) (xy 110.744 113.538))
    (stroke (width 0) (type default))
    (uuid 9b8da431-2a7c-4c77-930f-b98731806353)
  )
  (wire (pts (xy 238.125 128.905) (xy 238.125 130.175))
    (stroke (width 0) (type default))
    (uuid 9eabb24f-ae1c-4007-a0b2-17fc60f46b9a)
  )
  (wire (pts (xy 117.729 100.584) (xy 136.144 100.584))
    (stroke (width 0) (type default))
    (uuid a427eb96-6d4e-452e-9f3c-4ed4e9063b5d)
  )
  (wire (pts (xy 120.269 29.464) (xy 120.269 40.894))
    (stroke (width 0) (type default))
    (uuid a496ee12-a152-47a4-9461-58e98307f1f9)
  )
  (wire (pts (xy 117.729 29.464) (xy 117.729 40.894))
    (stroke (width 0) (type default))
    (uuid a7b3222a-35b2-489c-bded-bb4853292c77)
  )
  (wire (pts (xy 188.849 94.234) (xy 258.064 94.234))
    (stroke (width 0) (type default))
    (uuid a81aaa90-0216-458c-be0e-3a6c804a5084)
  )
  (wire (pts (xy 46.99 101.092) (xy 60.452 101.092))
    (stroke (width 0) (type default))
    (uuid a82d91d2-3cd5-4eab-ae8f-d92dd4448e44)
  )
  (wire (pts (xy 165.989 112.014) (xy 169.799 112.014))
    (stroke (width 0) (type default))
    (uuid a96b08b0-6039-4554-9d08-7da76725d417)
  )
  (wire (pts (xy 60.452 99.822) (xy 82.55 99.822))
    (stroke (width 0) (type default))
    (uuid b1004550-ad83-4f69-b8ab-e1e99762d572)
  )
  (wire (pts (xy 112.395 166.37) (xy 135.89 166.37))
    (stroke (width 0) (type default))
    (uuid b7eeaef6-d890-4b0f-9077-14a05a7da289)
  )
  (wire (pts (xy 254.889 96.774) (xy 254.889 97.409))
    (stroke (width 0) (type default))
    (uuid ba847d3e-a5fb-4cf1-aefc-5bede431c210)
  )
  (wire (pts (xy 206.629 73.914) (xy 218.694 73.914))
    (stroke (width 0) (type default))
    (uuid bb5d1816-5719-4183-a548-3c8ea100ef67)
  )
  (wire (pts (xy 167.894 58.039) (xy 174.879 58.039))
    (stroke (width 0) (type default))
    (uuid bd07f42c-3b70-424a-a250-2074dc1fcbc9)
  )
  (wire (pts (xy 188.849 65.024) (xy 188.849 86.614))
    (stroke (width 0) (type default))
    (uuid c2237e6e-f756-4a1c-bba0-c51d6d21e8d7)
  )
  (wire (pts (xy 188.849 86.614) (xy 258.064 86.614))
    (stroke (width 0) (type default))
    (uuid cee7fbc4-0061-418c-af8f-fd4a128e997e)
  )
  (wire (pts (xy 46.99 105.156) (xy 59.182 105.156))
    (stroke (width 0) (type default))
    (uuid d119f312-c4ba-45c2-b002-f86c2875b8f7)
  )
  (wire (pts (xy 94.742 163.83) (xy 94.742 168.91))
    (stroke (width 0) (type default))
    (uuid d4f29395-4ba1-45ee-bfc6-ff8f031236ed)
  )
  (wire (pts (xy 126.619 40.894) (xy 126.619 47.879))
    (stroke (width 0) (type default))
    (uuid d6ccce06-400e-418d-bd88-73383f83042a)
  )
  (wire (pts (xy 261.62 137.795) (xy 261.62 132.715))
    (stroke (width 0) (type default))
    (uuid d6fa0336-dd32-4de7-a484-3f0833d9a826)
  )
  (wire (pts (xy 261.62 153.035) (xy 261.62 158.115))
    (stroke (width 0) (type default))
    (uuid d746f893-ab3c-4443-be71-e70339eb25e6)
  )
  (wire (pts (xy 107.95 163.83) (xy 112.395 163.83))
    (stroke (width 0) (type default))
    (uuid d92e28be-f9d4-4e46-8ea4-281a701430cd)
  )
  (wire (pts (xy 235.204 71.374) (xy 235.204 76.454))
    (stroke (width 0) (type default))
    (uuid d969667d-6e0e-48bb-beb0-bd3146e6fb3a)
  )
  (wire (pts (xy 66.294 118.11) (xy 76.454 118.11))
    (stroke (width 0) (type default))
    (uuid d9f64626-9d39-4f56-b763-665c38501e9e)
  )
  (wire (pts (xy 167.894 65.024) (xy 188.849 65.024))
    (stroke (width 0) (type default))
    (uuid dc30b902-3100-4269-bad6-fbccc297ec96)
  )
  (wire (pts (xy 108.204 118.364) (xy 110.998 118.364))
    (stroke (width 0) (type default))
    (uuid dcbc9ae6-2993-44fa-9cfa-7699c37c6306)
  )
  (wire (pts (xy 233.934 71.374) (xy 235.204 71.374))
    (stroke (width 0) (type default))
    (uuid dd52f7b1-6e1c-47cb-ae9f-0234b66078ad)
  )
  (wire (pts (xy 82.55 101.854) (xy 59.182 101.854))
    (stroke (width 0) (type default))
    (uuid e0dbcebf-e57d-4406-9707-76a7ba38a87c)
  )
  (wire (pts (xy 165.989 99.314) (xy 184.404 99.314))
    (stroke (width 0) (type default))
    (uuid e0e474bb-6e87-4f63-b5f0-64a655f6ffd8)
  )
  (wire (pts (xy 184.404 89.154) (xy 235.204 89.154))
    (stroke (width 0) (type default))
    (uuid e94575fa-27b1-442e-b4b0-4c0d194e64e3)
  )
  (wire (pts (xy 238.125 155.575) (xy 238.125 158.115))
    (stroke (width 0) (type default))
    (uuid ede30522-d5ad-4326-bde7-45554d49e9f2)
  )
  (wire (pts (xy 184.404 99.314) (xy 184.404 89.154))
    (stroke (width 0) (type default))
    (uuid edfce15d-211c-4bec-94e7-1917a8e4ee86)
  )
  (wire (pts (xy 110.744 113.03) (xy 114.808 113.03))
    (stroke (width 0) (type default))
    (uuid ee9f4353-03e8-4ca1-944e-0c13f2142e47)
  )
  (wire (pts (xy 107.569 29.464) (xy 107.569 40.894))
    (stroke (width 0) (type default))
    (uuid f5f76236-665f-42c3-8699-95381053f2ec)
  )
  (wire (pts (xy 110.109 84.709) (xy 114.554 84.709))
    (stroke (width 0) (type default))
    (uuid f66ce735-22de-4c58-b36a-7e4ef407e395)
  )
  (wire (pts (xy 112.395 168.91) (xy 135.89 168.91))
    (stroke (width 0) (type default))
    (uuid f7f60c2d-18e7-43bb-ab86-89781e1b0a3f)
  )
  (wire (pts (xy 115.189 29.464) (xy 115.189 40.894))
    (stroke (width 0) (type default))
    (uuid fb911d47-3d01-4738-9044-1537cd86bd01)
  )

  (text "Al y desde\nel mainboard\nal driver" (at 123.19 33.782 0)
    (effects (font (size 2.0066 2.0066) (thickness 0.4013) bold) (justify left bottom))
    (uuid 19dc1dcc-a1d0-44e7-92e4-d2bd500e808b)
  )
  (text "Al uP" (at 266.192 91.948 0)
    (effects (font (size 2.0066 2.0066) (thickness 0.4013) bold) (justify left bottom))
    (uuid 52ce8e37-ba46-403d-bdd1-66d949d6d74a)
  )
  (text "Current Fault signal" (at 153.162 98.044 0)
    (effects (font (size 2.0066 2.0066) (thickness 0.4013) bold) (justify left bottom))
    (uuid 905d0180-c050-479f-abab-0b3ca4262580)
  )
  (text "Partes sin utilizar\ny Alimentacion" (at 205.105 161.925 0)
    (effects (font (size 2.0066 2.0066)) (justify left bottom))
    (uuid e45e141e-6adb-4d9c-b42e-4bd862d6f500)
  )

  (label "{slash}uP_PowerOn" (at 255.524 91.694 180) (fields_autoplaced)
    (effects (font (size 1.27 1.27)) (justify right bottom))
    (uuid 519a2f55-90d4-40d8-b8d6-c5b440fc9820)
  )
  (label "uP_PWM_Control_in" (at 237.744 86.614 0) (fields_autoplaced)
    (effects (font (size 1.27 1.27)) (justify left bottom))
    (uuid 77e4b0a2-8840-41b3-9826-e4580878465a)
  )
  (label "uP_FaultReset_in" (at 255.524 94.234 180) (fields_autoplaced)
    (effects (font (size 1.27 1.27)) (justify right bottom))
    (uuid 915729f2-94b5-44de-b025-d307581c572a)
  )
  (label "{slash}uP_CurrentFault_Out" (at 255.524 89.154 180) (fields_autoplaced)
    (effects (font (size 1.27 1.27)) (justify right bottom))
    (uuid e38da9e2-df82-4dca-bbaa-be88774bc543)
  )

  (symbol (lib_id "power:+12V") (at 94.742 163.83 0) (unit 1)
    (in_bom yes) (on_board yes) (dnp no) (fields_autoplaced)
    (uuid 0aa06cfa-e243-4079-8a12-9ba5a55530d9)
    (property "Reference" "#PWR0113" (at 94.742 167.64 0)
      (effects (font (size 1.27 1.27)) hide)
    )
    (property "Value" "+5V" (at 94.742 160.02 0)
      (effects (font (size 1.27 1.27)))
    )
    (property "Footprint" "" (at 94.742 163.83 0)
      (effects (font (size 1.27 1.27)) hide)
    )
    (property "Datasheet" "" (at 94.742 163.83 0)
      (effects (font (size 1.27 1.27)) hide)
    )
    (pin "1" (uuid ffc3f6e9-0f6f-4158-847b-79f4ed5bd012))
    (instances
      (project "Fuente_200W_V2"
        (path "/e63e39d7-6ac0-4ffd-8aa3-1841a4541b55/1a6c3209-0b4e-42dd-8a2f-08295af79e44"
          (reference "#PWR0113") (unit 1)
        )
        (path "/e63e39d7-6ac0-4ffd-8aa3-1841a4541b55"
          (reference "#PWR09") (unit 1)
        )
      )
    )
  )

  (symbol (lib_id "BPG_Potencia-rescue:SN74HC132DR-tedy_library") (at 269.24 135.255 0) (unit 3)
    (in_bom yes) (on_board yes) (dnp no)
    (uuid 1d6c9128-1098-41cd-bdc0-24f1f858c695)
    (property "Reference" "U901" (at 269.24 127 0)
      (effects (font (size 1.27 1.27)))
    )
    (property "Value" "SN74HC132DR" (at 269.24 129.3114 0)
      (effects (font (size 1.27 1.27)))
    )
    (property "Footprint" "Tedy:SOIC-14_3.9x8.7mm_P1.27mm-Package_SO" (at 269.24 135.255 0)
      (effects (font (size 1.27 1.27)) hide)
    )
    (property "Datasheet" "http://www.ti.com/general/docs/suppproductinfo.tsp?distId=10&gotoUrl=http%3A%2F%2Fwww.ti.com%2Flit%2Fgpn%2Fsn74hc132" (at 269.24 135.255 0)
      (effects (font (size 1.27 1.27)) hide)
    )
    (property "digikey#" "296-14832-1-ND" (at 269.24 137.795 0)
      (effects (font (size 1.524 1.524)) hide)
    )
    (property "manf" "Texas Instruments" (at 269.24 137.795 0)
      (effects (font (size 1.524 1.524)) hide)
    )
    (property "manf#" "SN74HC132DR" (at 269.24 137.795 0)
      (effects (font (size 1.524 1.524)) hide)
    )
    (property "Precio" "0.35000x1" (at 269.24 137.795 0)
      (effects (font (size 1.524 1.524)) hide)
    )
    (property "Description" "IC GATE NAND SCHMITT 4CH 14SOIC" (at 269.24 137.795 0)
      (effects (font (size 1.524 1.524)) hide)
    )
    (pin "1" (uuid 6bb45bf6-15b4-4ead-92c4-49a14f97b7eb))
    (pin "2" (uuid 5e7a8132-7340-4004-a66f-5bffbc6eba8b))
    (pin "3" (uuid 5ddca12b-69e9-4969-bea0-d7c6fe91db32))
    (pin "4" (uuid 21ea5099-941f-45c3-891a-a9be0f88d754))
    (pin "5" (uuid b34e8feb-26cb-45c9-8ba5-bc907f115268))
    (pin "6" (uuid 281a05a4-1667-4f18-b6e3-3052720b334d))
    (pin "10" (uuid fb99beaf-8cb5-4c8d-815d-63e09a9957f2))
    (pin "8" (uuid ef3eb1b1-9eb1-4563-b3ea-be805a34ea69))
    (pin "9" (uuid 87143c98-be3f-4a81-8e28-c9733f905152))
    (pin "11" (uuid 2a567d67-62ec-49ab-ad8e-e3a81aa5cf0d))
    (pin "12" (uuid e7bd9f33-23f9-439c-936c-9c297226f59b))
    (pin "13" (uuid 67be50c6-55a1-466e-abfe-6200e344932f))
    (pin "14" (uuid 51a05e59-42c9-4e18-8047-c05547ebe261))
    (pin "7" (uuid 1a4e57d0-8a06-4b8f-bd11-da952233b3d9))
    (instances
      (project "BPG_Potencia"
        (path "/91566b1a-b47e-4f8d-befa-6d62d2c934af/00000000-0000-0000-0000-00005fda9138"
          (reference "U901") (unit 3)
        )
      )
      (project "Fuente_200W_V2"
        (path "/e63e39d7-6ac0-4ffd-8aa3-1841a4541b55"
          (reference "U3") (unit 3)
        )
      )
    )
  )

  (symbol (lib_id "Connector_Generic:Conn_01x05") (at 119.888 115.57 0) (unit 1)
    (in_bom yes) (on_board yes) (dnp no)
    (uuid 21a2769f-6435-4639-93c4-ca3aefa3903d)
    (property "Reference" "J10" (at 117.983 123.825 0)
      (effects (font (size 1.27 1.27)) (justify left))
    )
    (property "Value" "Conn_01x05" (at 112.903 126.365 0)
      (effects (font (size 1.27 1.27)) (justify left))
    )
    (property "Footprint" "Connector_Molex:Molex_KK-254_AE-6410-05A_1x05_P2.54mm_Vertical" (at 119.888 115.57 0)
      (effects (font (size 1.27 1.27)) hide)
    )
    (property "Datasheet" "~" (at 119.888 115.57 0)
      (effects (font (size 1.27 1.27)) hide)
    )
    (pin "1" (uuid 82c48b91-3a44-4275-8137-e4dc45ed1a0c))
    (pin "2" (uuid b19c6eb8-e661-4100-91ba-06c08d7ac31b))
    (pin "3" (uuid 07ddb7ef-da2a-46e0-b3ec-a4c241d07bce))
    (pin "4" (uuid 8a25a4d1-bca9-4c64-8d4e-2b5f9d704e97))
    (pin "5" (uuid def2e6fe-f5d3-4cb4-9bdd-a4f380f44170))
    (instances
      (project "Fuente_200W_V2"
        (path "/e63e39d7-6ac0-4ffd-8aa3-1841a4541b55"
          (reference "J10") (unit 1)
        )
      )
    )
  )

  (symbol (lib_id "Connector_Generic:Conn_01x05") (at 263.144 91.694 0) (mirror x) (unit 1)
    (in_bom yes) (on_board yes) (dnp no) (fields_autoplaced)
    (uuid 2ffe5e66-6f4f-4075-9bf5-dbb26a7f5b3f)
    (property "Reference" "J3" (at 263.144 81.534 0)
      (effects (font (size 1.27 1.27)))
    )
    (property "Value" "Conn_01x05" (at 263.144 84.074 0)
      (effects (font (size 1.27 1.27)))
    )
    (property "Footprint" "Connector_Molex:Molex_KK-254_AE-6410-05A_1x05_P2.54mm_Vertical" (at 263.144 91.694 0)
      (effects (font (size 1.27 1.27)) hide)
    )
    (property "Datasheet" "~" (at 263.144 91.694 0)
      (effects (font (size 1.27 1.27)) hide)
    )
    (pin "1" (uuid 2549a7f0-3404-452b-b0cf-d6c84e871938))
    (pin "2" (uuid 1b82bfb1-17c4-46ed-859d-c797fb199a0d))
    (pin "3" (uuid 17f07bbe-27c9-4138-98a6-fe40ff4be62b))
    (pin "4" (uuid 7eebdc97-8808-4b99-bec1-95deb4bd0bea))
    (pin "5" (uuid 6c58881c-7dbb-4ac3-912b-c07e169439d0))
    (instances
      (project "Fuente_200W_V2"
        (path "/e63e39d7-6ac0-4ffd-8aa3-1841a4541b55"
          (reference "J3") (unit 1)
        )
        (path "/e63e39d7-6ac0-4ffd-8aa3-1841a4541b55/1a6c3209-0b4e-42dd-8a2f-08295af79e44"
          (reference "J3") (unit 1)
        )
      )
    )
  )

  (symbol (lib_id "power:+5V") (at 238.125 128.905 0) (unit 1)
    (in_bom yes) (on_board yes) (dnp no) (fields_autoplaced)
    (uuid 3413806a-68f8-4750-9d6e-34621f0b5e81)
    (property "Reference" "#PWR0109" (at 238.125 132.715 0)
      (effects (font (size 1.27 1.27)) hide)
    )
    (property "Value" "+5V" (at 238.125 125.3292 0)
      (effects (font (size 1.27 1.27)))
    )
    (property "Footprint" "" (at 238.125 128.905 0)
      (effects (font (size 1.27 1.27)) hide)
    )
    (property "Datasheet" "" (at 238.125 128.905 0)
      (effects (font (size 1.27 1.27)) hide)
    )
    (pin "1" (uuid a1539993-14a5-4709-be91-abcbaf97e3c2))
    (instances
      (project "Fuente_200W_V2"
        (path "/e63e39d7-6ac0-4ffd-8aa3-1841a4541b55/145919d9-26ed-4c18-a5f4-064796aa23b5"
          (reference "#PWR0109") (unit 1)
        )
        (path "/e63e39d7-6ac0-4ffd-8aa3-1841a4541b55"
          (reference "#PWR018") (unit 1)
        )
      )
    )
  )

  (symbol (lib_id "power:GND") (at 120.269 42.799 0) (unit 1)
    (in_bom yes) (on_board yes) (dnp no) (fields_autoplaced)
    (uuid 3c728aa0-90bd-45e1-bd7e-9ec89e5cef44)
    (property "Reference" "#PWR014" (at 120.269 49.149 0)
      (effects (font (size 1.27 1.27)) hide)
    )
    (property "Value" "GND" (at 120.269 47.2424 0)
      (effects (font (size 1.27 1.27)))
    )
    (property "Footprint" "" (at 120.269 42.799 0)
      (effects (font (size 1.27 1.27)) hide)
    )
    (property "Datasheet" "" (at 120.269 42.799 0)
      (effects (font (size 1.27 1.27)) hide)
    )
    (pin "1" (uuid 6b0757e6-8b9f-493f-950f-9bd5231abacd))
    (instances
      (project "Fuente_200W_V2"
        (path "/e63e39d7-6ac0-4ffd-8aa3-1841a4541b55/1a6c3209-0b4e-42dd-8a2f-08295af79e44"
          (reference "#PWR014") (unit 1)
        )
        (path "/e63e39d7-6ac0-4ffd-8aa3-1841a4541b55"
          (reference "#PWR027") (unit 1)
        )
      )
    )
  )

  (symbol (lib_id "BPG_Potencia-rescue:SN74HC132DR-tedy_library") (at 199.009 71.374 180) (unit 1)
    (in_bom yes) (on_board yes) (dnp no)
    (uuid 5cf42fb4-9724-4517-88f8-e65db9624452)
    (property "Reference" "U901" (at 199.009 79.629 0)
      (effects (font (size 1.27 1.27)))
    )
    (property "Value" "SN74HC132DR" (at 199.009 77.3176 0)
      (effects (font (size 1.27 1.27)))
    )
    (property "Footprint" "Tedy:SOIC-14_3.9x8.7mm_P1.27mm-Package_SO" (at 199.009 71.374 0)
      (effects (font (size 1.27 1.27)) hide)
    )
    (property "Datasheet" "http://www.ti.com/general/docs/suppproductinfo.tsp?distId=10&gotoUrl=http%3A%2F%2Fwww.ti.com%2Flit%2Fgpn%2Fsn74hc132" (at 199.009 71.374 0)
      (effects (font (size 1.27 1.27)) hide)
    )
    (property "digikey#" "296-14832-1-ND" (at 199.009 68.834 0)
      (effects (font (size 1.524 1.524)) hide)
    )
    (property "manf" "Texas Instruments" (at 199.009 68.834 0)
      (effects (font (size 1.524 1.524)) hide)
    )
    (property "manf#" "SN74HC132DR" (at 199.009 68.834 0)
      (effects (font (size 1.524 1.524)) hide)
    )
    (property "Precio" "0.35000x1" (at 199.009 68.834 0)
      (effects (font (size 1.524 1.524)) hide)
    )
    (property "Description" "IC GATE NAND SCHMITT 4CH 14SOIC" (at 199.009 68.834 0)
      (effects (font (size 1.524 1.524)) hide)
    )
    (pin "1" (uuid fe477949-f33e-42d6-ae97-8fa9943facb9))
    (pin "2" (uuid 1c3e2ae9-1b12-4233-8ab1-e3e4a64203a1))
    (pin "3" (uuid a2aed52e-7e18-4b93-9b65-19f12d0bf52e))
    (pin "4" (uuid ffffba08-ed3e-4764-9ab3-0e77a4753c02))
    (pin "5" (uuid d8d568ab-c22e-4a15-839c-527704b8d469))
    (pin "6" (uuid b14ab2f7-4596-4712-8582-0b42668618e1))
    (pin "10" (uuid 58930b83-1be2-4e39-b4cb-e16c243c4df2))
    (pin "8" (uuid dcb9b1f9-2fc6-4941-acce-62a26974dee4))
    (pin "9" (uuid 250ccdb2-293f-48c6-9a17-ae271dd86dee))
    (pin "11" (uuid 7c500260-4aa7-4466-b137-ee4f3c186c45))
    (pin "12" (uuid 91e4b1bd-99d4-4804-8627-7a7fda6ac9ce))
    (pin "13" (uuid e6d88f88-6236-454c-a55c-f8250f522485))
    (pin "14" (uuid 60798c14-b575-454e-9bce-f0a7a09e33b8))
    (pin "7" (uuid 98f0e774-73f4-45da-88cf-2a28cc969ce0))
    (instances
      (project "BPG_Potencia"
        (path "/91566b1a-b47e-4f8d-befa-6d62d2c934af/00000000-0000-0000-0000-00005fda9138"
          (reference "U901") (unit 1)
        )
      )
      (project "Fuente_200W_V2"
        (path "/e63e39d7-6ac0-4ffd-8aa3-1841a4541b55"
          (reference "U3") (unit 1)
        )
      )
    )
  )

  (symbol (lib_id "Connector_Generic:Conn_01x03") (at 117.475 166.37 0) (unit 1)
    (in_bom yes) (on_board yes) (dnp no)
    (uuid 60bc578a-e6c2-4a32-8354-e0a2edf4cafd)
    (property "Reference" "J8" (at 119.38 165.735 0)
      (effects (font (size 1.27 1.27) italic) (justify left))
    )
    (property "Value" "Alimentacion" (at 119.38 168.275 0)
      (effects (font (size 1.27 1.27)) (justify left))
    )
    (property "Footprint" "Connector:FanPinHeader_1x03_P2.54mm_Vertical" (at 117.475 166.37 0)
      (effects (font (size 1.27 1.27)) hide)
    )
    (property "Datasheet" "~" (at 117.475 166.37 0)
      (effects (font (size 1.27 1.27)) hide)
    )
    (pin "1" (uuid f5b21099-6846-4a15-8186-dff7735262c4))
    (pin "2" (uuid 3be16eac-0ebf-4e18-93f2-7a009cbaac7d))
    (pin "3" (uuid 2870a029-eb58-42fd-87ef-5968e3c7c96c))
    (instances
      (project "Fuente_200W_V2"
        (path "/e63e39d7-6ac0-4ffd-8aa3-1841a4541b55/1a6c3209-0b4e-42dd-8a2f-08295af79e44"
          (reference "J8") (unit 1)
        )
        (path "/e63e39d7-6ac0-4ffd-8aa3-1841a4541b55"
          (reference "J8") (unit 1)
        )
      )
    )
  )

  (symbol (lib_id "power:+5V") (at 214.884 56.769 0) (unit 1)
    (in_bom yes) (on_board yes) (dnp no) (fields_autoplaced)
    (uuid 62c88f85-e1ad-4f92-bc69-00645a1518f8)
    (property "Reference" "#PWR0109" (at 214.884 60.579 0)
      (effects (font (size 1.27 1.27)) hide)
    )
    (property "Value" "+5V" (at 214.884 53.1932 0)
      (effects (font (size 1.27 1.27)))
    )
    (property "Footprint" "" (at 214.884 56.769 0)
      (effects (font (size 1.27 1.27)) hide)
    )
    (property "Datasheet" "" (at 214.884 56.769 0)
      (effects (font (size 1.27 1.27)) hide)
    )
    (pin "1" (uuid bc4448bc-e56f-48eb-8397-294405cdc69e))
    (instances
      (project "Fuente_200W_V2"
        (path "/e63e39d7-6ac0-4ffd-8aa3-1841a4541b55/145919d9-26ed-4c18-a5f4-064796aa23b5"
          (reference "#PWR0109") (unit 1)
        )
        (path "/e63e39d7-6ac0-4ffd-8aa3-1841a4541b55"
          (reference "#PWR012") (unit 1)
        )
      )
    )
  )

  (symbol (lib_id "BPG_Potencia-rescue:SN74HC132DR-tedy_library") (at 269.24 150.495 0) (unit 4)
    (in_bom yes) (on_board yes) (dnp no)
    (uuid 6cb2a4b1-99dd-4884-90a0-2780cf9119ec)
    (property "Reference" "U901" (at 269.24 142.24 0)
      (effects (font (size 1.27 1.27)))
    )
    (property "Value" "SN74HC132DR" (at 269.24 144.5514 0)
      (effects (font (size 1.27 1.27)))
    )
    (property "Footprint" "Tedy:SOIC-14_3.9x8.7mm_P1.27mm-Package_SO" (at 269.24 150.495 0)
      (effects (font (size 1.27 1.27)) hide)
    )
    (property "Datasheet" "http://www.ti.com/general/docs/suppproductinfo.tsp?distId=10&gotoUrl=http%3A%2F%2Fwww.ti.com%2Flit%2Fgpn%2Fsn74hc132" (at 269.24 150.495 0)
      (effects (font (size 1.27 1.27)) hide)
    )
    (property "digikey#" "296-14832-1-ND" (at 269.24 153.035 0)
      (effects (font (size 1.524 1.524)) hide)
    )
    (property "manf" "Texas Instruments" (at 269.24 153.035 0)
      (effects (font (size 1.524 1.524)) hide)
    )
    (property "manf#" "SN74HC132DR" (at 269.24 153.035 0)
      (effects (font (size 1.524 1.524)) hide)
    )
    (property "Precio" "0.35000x1" (at 269.24 153.035 0)
      (effects (font (size 1.524 1.524)) hide)
    )
    (property "Description" "IC GATE NAND SCHMITT 4CH 14SOIC" (at 269.24 153.035 0)
      (effects (font (size 1.524 1.524)) hide)
    )
    (pin "1" (uuid 3e1ffd48-028e-4b85-ae8b-b9ca75dc359b))
    (pin "2" (uuid ff0c6bf7-f2e2-4b3c-be96-96fe3f2d9fcd))
    (pin "3" (uuid 91d818d3-9202-49f7-86d3-e71ba7e51edc))
    (pin "4" (uuid 075f4959-2d70-44d5-b048-57b25932d488))
    (pin "5" (uuid 0e76c16d-da8a-4378-b2fc-044e5f0f3f5e))
    (pin "6" (uuid 9d22d7ab-453c-4272-8ae3-93f41ce679bb))
    (pin "10" (uuid 4b54a7e7-937b-4413-9242-f0d9c783e31a))
    (pin "8" (uuid 0f321f8e-2830-45ee-9863-5f32ff2b1d2f))
    (pin "9" (uuid ab68ceff-5780-4371-bdae-f58c28a77800))
    (pin "11" (uuid c6f7230d-82fa-4d61-a597-cd126735aa5f))
    (pin "12" (uuid ba5614e2-56be-4fd0-b0db-b30bdd472ec4))
    (pin "13" (uuid 3f5a1fe3-2d51-43f9-9683-be8be44ca5f6))
    (pin "14" (uuid 849b26e6-e6e9-480f-944b-8ca58099cb6a))
    (pin "7" (uuid fef12366-a160-472e-818d-a041e201ce33))
    (instances
      (project "BPG_Potencia"
        (path "/91566b1a-b47e-4f8d-befa-6d62d2c934af/00000000-0000-0000-0000-00005fda9138"
          (reference "U901") (unit 4)
        )
      )
      (project "Fuente_200W_V2"
        (path "/e63e39d7-6ac0-4ffd-8aa3-1841a4541b55"
          (reference "U3") (unit 4)
        )
      )
    )
  )

  (symbol (lib_id "power:+12V") (at 107.95 163.83 0) (unit 1)
    (in_bom yes) (on_board yes) (dnp no) (fields_autoplaced)
    (uuid 7535790e-277c-405c-ad95-986f390ad5ea)
    (property "Reference" "#PWR0113" (at 107.95 167.64 0)
      (effects (font (size 1.27 1.27)) hide)
    )
    (property "Value" "+12V" (at 107.95 160.2542 0)
      (effects (font (size 1.27 1.27)))
    )
    (property "Footprint" "" (at 107.95 163.83 0)
      (effects (font (size 1.27 1.27)) hide)
    )
    (property "Datasheet" "" (at 107.95 163.83 0)
      (effects (font (size 1.27 1.27)) hide)
    )
    (pin "1" (uuid ad7bf2f3-6ce5-46af-9cd1-c4bf24c723c1))
    (instances
      (project "Fuente_200W_V2"
        (path "/e63e39d7-6ac0-4ffd-8aa3-1841a4541b55/1a6c3209-0b4e-42dd-8a2f-08295af79e44"
          (reference "#PWR0113") (unit 1)
        )
        (path "/e63e39d7-6ac0-4ffd-8aa3-1841a4541b55"
          (reference "#PWR026") (unit 1)
        )
      )
    )
  )

  (symbol (lib_id "Connector_Generic:Conn_01x04") (at 71.374 115.57 180) (unit 1)
    (in_bom yes) (on_board yes) (dnp no)
    (uuid 88ee64e3-5b14-4085-bbdc-665043e970a5)
    (property "Reference" "J13" (at 73.279 107.315 0)
      (effects (font (size 1.27 1.27)) (justify left))
    )
    (property "Value" "Conn_01x04" (at 77.47 121.92 0)
      (effects (font (size 1.27 1.27)) (justify left))
    )
    (property "Footprint" "Connector_Molex:Molex_KK-254_AE-6410-04A_1x04_P2.54mm_Vertical" (at 71.374 115.57 0)
      (effects (font (size 1.27 1.27)) hide)
    )
    (property "Datasheet" "~" (at 71.374 115.57 0)
      (effects (font (size 1.27 1.27)) hide)
    )
    (pin "1" (uuid 5ddeaea8-6d33-45ec-85fe-76ff12c4b225))
    (pin "2" (uuid 376c3b2d-4b90-494e-b3e5-b49d87362844))
    (pin "3" (uuid 7c7d50b6-cab1-43d1-9e83-42ee00cfe58d))
    (pin "4" (uuid fc050b4e-07dc-4267-85aa-6206e1712659))
    (instances
      (project "Fuente_200W_V2"
        (path "/e63e39d7-6ac0-4ffd-8aa3-1841a4541b55"
          (reference "J13") (unit 1)
        )
      )
    )
  )

  (symbol (lib_id "power:GND") (at 261.62 158.115 0) (unit 1)
    (in_bom yes) (on_board yes) (dnp no) (fields_autoplaced)
    (uuid 8a078c7d-79e9-4a9a-afd3-019f49f7f5c2)
    (property "Reference" "#PWR014" (at 261.62 164.465 0)
      (effects (font (size 1.27 1.27)) hide)
    )
    (property "Value" "GND" (at 261.62 162.5584 0)
      (effects (font (size 1.27 1.27)))
    )
    (property "Footprint" "" (at 261.62 158.115 0)
      (effects (font (size 1.27 1.27)) hide)
    )
    (property "Datasheet" "" (at 261.62 158.115 0)
      (effects (font (size 1.27 1.27)) hide)
    )
    (pin "1" (uuid 147a5c3c-c527-40dc-8ef1-e2be9dcad209))
    (instances
      (project "Fuente_200W_V2"
        (path "/e63e39d7-6ac0-4ffd-8aa3-1841a4541b55/1a6c3209-0b4e-42dd-8a2f-08295af79e44"
          (reference "#PWR014") (unit 1)
        )
        (path "/e63e39d7-6ac0-4ffd-8aa3-1841a4541b55"
          (reference "#PWR010") (unit 1)
        )
      )
    )
  )

  (symbol (lib_id "Connector_Generic:Conn_01x06") (at 112.649 35.814 90) (unit 1)
    (in_bom yes) (on_board yes) (dnp no) (fields_autoplaced)
    (uuid 8ea9fb37-df83-4173-b2f8-6dcc74033cfd)
    (property "Reference" "J12" (at 113.919 30.734 90)
      (effects (font (size 1.27 1.27)))
    )
    (property "Value" "Conn_01x06" (at 113.919 33.274 90)
      (effects (font (size 1.27 1.27)))
    )
    (property "Footprint" "Connector_Molex:Molex_KK-254_AE-6410-06A_1x06_P2.54mm_Vertical" (at 112.649 35.814 0)
      (effects (font (size 1.27 1.27)) hide)
    )
    (property "Datasheet" "~" (at 112.649 35.814 0)
      (effects (font (size 1.27 1.27)) hide)
    )
    (pin "1" (uuid 2756cc0a-d78c-4915-a1e5-547cd2d1357c))
    (pin "2" (uuid 4b482920-0843-46b5-9059-6988754d43e5))
    (pin "3" (uuid ab777f61-f0c3-428c-8d3f-fddae278698c))
    (pin "4" (uuid 0ca2af91-f5e4-4a10-9e8f-b17a240fce9d))
    (pin "5" (uuid 246024bb-938a-4246-8f7c-547cb7ecc55e))
    (pin "6" (uuid 67eae2a0-51e8-4aa0-8cb7-f3d6295c19fc))
    (instances
      (project "Fuente_200W_V2"
        (path "/e63e39d7-6ac0-4ffd-8aa3-1841a4541b55"
          (reference "J12") (unit 1)
        )
      )
    )
  )

  (symbol (lib_id "BPG_Potencia-rescue:SN74HC132DR-tedy_library") (at 226.314 73.914 0) (mirror y) (unit 2)
    (in_bom yes) (on_board yes) (dnp no)
    (uuid 9bdb4fce-be61-45d1-a9b4-7a356dee2132)
    (property "Reference" "U901" (at 226.314 65.659 0)
      (effects (font (size 1.27 1.27)))
    )
    (property "Value" "SN74HC132DR" (at 226.314 67.9704 0)
      (effects (font (size 1.27 1.27)))
    )
    (property "Footprint" "Tedy:SOIC-14_3.9x8.7mm_P1.27mm-Package_SO" (at 226.314 73.914 0)
      (effects (font (size 1.27 1.27)) hide)
    )
    (property "Datasheet" "http://www.ti.com/general/docs/suppproductinfo.tsp?distId=10&gotoUrl=http%3A%2F%2Fwww.ti.com%2Flit%2Fgpn%2Fsn74hc132" (at 226.314 73.914 0)
      (effects (font (size 1.27 1.27)) hide)
    )
    (property "digikey#" "296-14832-1-ND" (at 226.314 76.454 0)
      (effects (font (size 1.524 1.524)) hide)
    )
    (property "manf" "Texas Instruments" (at 226.314 76.454 0)
      (effects (font (size 1.524 1.524)) hide)
    )
    (property "manf#" "SN74HC132DR" (at 226.314 76.454 0)
      (effects (font (size 1.524 1.524)) hide)
    )
    (property "Precio" "0.35000x1" (at 226.314 76.454 0)
      (effects (font (size 1.524 1.524)) hide)
    )
    (property "Description" "IC GATE NAND SCHMITT 4CH 14SOIC" (at 226.314 76.454 0)
      (effects (font (size 1.524 1.524)) hide)
    )
    (pin "1" (uuid 20306914-a54f-4327-ba0d-7780eee0c33e))
    (pin "2" (uuid 543b9fe0-9762-47c2-bdea-2cb1042882f5))
    (pin "3" (uuid bdc1f1f6-a852-4f12-96a0-120538853b01))
    (pin "4" (uuid b4e190ee-cb54-4f0a-9caa-37b6bd0400a0))
    (pin "5" (uuid d913b1a7-4447-48a7-8a51-b9258654f0fa))
    (pin "6" (uuid 1f83c909-1da6-431a-99b1-16273dde01e1))
    (pin "10" (uuid 08180b8c-5e99-43a7-902d-bdcc1e23ad00))
    (pin "8" (uuid ab35f31b-8df2-4498-afc1-f759995296f7))
    (pin "9" (uuid 4e2c7bc1-7d58-48e6-a0c6-29b0db3244b1))
    (pin "11" (uuid 82e335a9-7c33-4661-80c2-7407b23740de))
    (pin "12" (uuid fb8edb29-01e0-4a74-9504-432264be36b1))
    (pin "13" (uuid fd198884-d655-442c-a58b-8706ee67abfe))
    (pin "14" (uuid 9d76cb47-6a77-47ef-a518-0addbbc98546))
    (pin "7" (uuid e20d50df-c49f-42aa-aaf9-31dafbffaab2))
    (instances
      (project "BPG_Potencia"
        (path "/91566b1a-b47e-4f8d-befa-6d62d2c934af/00000000-0000-0000-0000-00005fda9138"
          (reference "U901") (unit 2)
        )
      )
      (project "Fuente_200W_V2"
        (path "/e63e39d7-6ac0-4ffd-8aa3-1841a4541b55"
          (reference "U3") (unit 2)
        )
      )
    )
  )

  (symbol (lib_id "power:GND") (at 169.799 113.284 0) (unit 1)
    (in_bom yes) (on_board yes) (dnp no) (fields_autoplaced)
    (uuid ac6c1e72-4e02-44ec-9841-f1d13d4f817f)
    (property "Reference" "#PWR014" (at 169.799 119.634 0)
      (effects (font (size 1.27 1.27)) hide)
    )
    (property "Value" "GND" (at 169.799 117.7274 0)
      (effects (font (size 1.27 1.27)))
    )
    (property "Footprint" "" (at 169.799 113.284 0)
      (effects (font (size 1.27 1.27)) hide)
    )
    (property "Datasheet" "" (at 169.799 113.284 0)
      (effects (font (size 1.27 1.27)) hide)
    )
    (pin "1" (uuid cf239499-5e91-421f-a6ae-09cae944e97f))
    (instances
      (project "Fuente_200W_V2"
        (path "/e63e39d7-6ac0-4ffd-8aa3-1841a4541b55/1a6c3209-0b4e-42dd-8a2f-08295af79e44"
          (reference "#PWR014") (unit 1)
        )
        (path "/e63e39d7-6ac0-4ffd-8aa3-1841a4541b55"
          (reference "#PWR06") (unit 1)
        )
      )
    )
  )

  (symbol (lib_id "BPG_Potencia-rescue:SN74HC132DR-tedy_library") (at 238.125 142.875 0) (unit 5)
    (in_bom yes) (on_board yes) (dnp no)
    (uuid b21b9ec6-9276-49d2-8a9d-abe66e37ff1b)
    (property "Reference" "U901" (at 247.015 138.43 0)
      (effects (font (size 1.27 1.27)))
    )
    (property "Value" "SN74HC132DR" (at 250.825 140.335 0)
      (effects (font (size 1.27 1.27)))
    )
    (property "Footprint" "Tedy:SOIC-14_3.9x8.7mm_P1.27mm-Package_SO" (at 238.125 142.875 0)
      (effects (font (size 1.27 1.27)) hide)
    )
    (property "Datasheet" "http://www.ti.com/general/docs/suppproductinfo.tsp?distId=10&gotoUrl=http%3A%2F%2Fwww.ti.com%2Flit%2Fgpn%2Fsn74hc132" (at 238.125 142.875 0)
      (effects (font (size 1.27 1.27)) hide)
    )
    (property "digikey#" "296-14832-1-ND" (at 238.125 145.415 0)
      (effects (font (size 1.524 1.524)) hide)
    )
    (property "manf" "Texas Instruments" (at 238.125 145.415 0)
      (effects (font (size 1.524 1.524)) hide)
    )
    (property "manf#" "SN74HC132DR" (at 238.125 145.415 0)
      (effects (font (size 1.524 1.524)) hide)
    )
    (property "Precio" "0.35000x1" (at 238.125 145.415 0)
      (effects (font (size 1.524 1.524)) hide)
    )
    (property "Description" "IC GATE NAND SCHMITT 4CH 14SOIC" (at 238.125 145.415 0)
      (effects (font (size 1.524 1.524)) hide)
    )
    (pin "1" (uuid ed153845-c018-492e-a16d-239b18e62bb9))
    (pin "2" (uuid 7f65a826-dcc6-421f-9f37-5922e780615b))
    (pin "3" (uuid 9c874be6-e303-4378-bd45-ad2c74c00061))
    (pin "4" (uuid 51181b44-8f5a-44c9-8484-1b73d8d04585))
    (pin "5" (uuid 967e59f2-65c9-405b-87d3-a79e00539f9c))
    (pin "6" (uuid ea3586e9-f039-4043-abbf-a5e85ba5a29e))
    (pin "10" (uuid 1692dd7f-5e45-4606-8885-9e788132aac2))
    (pin "8" (uuid b5319f79-13f8-4bdf-b7a8-fc71610a1c6e))
    (pin "9" (uuid 492fe8f8-16a7-499c-865e-716d963eef61))
    (pin "11" (uuid d77f2bcb-e5eb-49b3-978f-34ca71c03648))
    (pin "12" (uuid 4b2174be-c864-4040-afb0-8f1b37174d10))
    (pin "13" (uuid 4007b7ce-3ba6-43fd-b4f1-1ce36a03aa6a))
    (pin "14" (uuid 86366bbe-c33a-4233-9ad0-64849f7ecc1d))
    (pin "7" (uuid 6d655207-1429-42b2-b711-1b32329f835b))
    (instances
      (project "BPG_Potencia"
        (path "/91566b1a-b47e-4f8d-befa-6d62d2c934af/00000000-0000-0000-0000-00005fda9138"
          (reference "U901") (unit 5)
        )
      )
      (project "Fuente_200W_V2"
        (path "/e63e39d7-6ac0-4ffd-8aa3-1841a4541b55"
          (reference "U3") (unit 5)
        )
      )
    )
  )

  (symbol (lib_id "power:GND") (at 254.889 97.409 0) (unit 1)
    (in_bom yes) (on_board yes) (dnp no) (fields_autoplaced)
    (uuid bc6b81a0-038e-4659-98c6-ebe77beea951)
    (property "Reference" "#PWR014" (at 254.889 103.759 0)
      (effects (font (size 1.27 1.27)) hide)
    )
    (property "Value" "GND" (at 254.889 101.8524 0)
      (effects (font (size 1.27 1.27)))
    )
    (property "Footprint" "" (at 254.889 97.409 0)
      (effects (font (size 1.27 1.27)) hide)
    )
    (property "Datasheet" "" (at 254.889 97.409 0)
      (effects (font (size 1.27 1.27)) hide)
    )
    (pin "1" (uuid 95062abd-91c1-46fa-abfc-29cf02eff3d3))
    (instances
      (project "Fuente_200W_V2"
        (path "/e63e39d7-6ac0-4ffd-8aa3-1841a4541b55/1a6c3209-0b4e-42dd-8a2f-08295af79e44"
          (reference "#PWR014") (unit 1)
        )
        (path "/e63e39d7-6ac0-4ffd-8aa3-1841a4541b55"
          (reference "#PWR07") (unit 1)
        )
      )
    )
  )

  (symbol (lib_id "power:GND") (at 238.125 158.115 0) (unit 1)
    (in_bom yes) (on_board yes) (dnp no) (fields_autoplaced)
    (uuid bf75b60d-d618-4936-81c5-f7c15bb0a84e)
    (property "Reference" "#PWR014" (at 238.125 164.465 0)
      (effects (font (size 1.27 1.27)) hide)
    )
    (property "Value" "GND" (at 238.125 162.5584 0)
      (effects (font (size 1.27 1.27)))
    )
    (property "Footprint" "" (at 238.125 158.115 0)
      (effects (font (size 1.27 1.27)) hide)
    )
    (property "Datasheet" "" (at 238.125 158.115 0)
      (effects (font (size 1.27 1.27)) hide)
    )
    (pin "1" (uuid b60b3ebc-ca78-4a4e-a523-19ad20ad7677))
    (instances
      (project "Fuente_200W_V2"
        (path "/e63e39d7-6ac0-4ffd-8aa3-1841a4541b55/1a6c3209-0b4e-42dd-8a2f-08295af79e44"
          (reference "#PWR014") (unit 1)
        )
        (path "/e63e39d7-6ac0-4ffd-8aa3-1841a4541b55"
          (reference "#PWR08") (unit 1)
        )
      )
    )
  )

  (symbol (lib_id "power:GND") (at 107.95 170.18 0) (unit 1)
    (in_bom yes) (on_board yes) (dnp no) (fields_autoplaced)
    (uuid ce4010b6-cc87-448e-8dbe-368321ba2d44)
    (property "Reference" "#PWR05" (at 107.95 176.53 0)
      (effects (font (size 1.27 1.27)) hide)
    )
    (property "Value" "GND" (at 107.95 174.6234 0)
      (effects (font (size 1.27 1.27)))
    )
    (property "Footprint" "" (at 107.95 170.18 0)
      (effects (font (size 1.27 1.27)) hide)
    )
    (property "Datasheet" "" (at 107.95 170.18 0)
      (effects (font (size 1.27 1.27)) hide)
    )
    (pin "1" (uuid f243415b-1e2e-42bb-a519-8fa32a226ca7))
    (instances
      (project "Fuente_200W_V2"
        (path "/e63e39d7-6ac0-4ffd-8aa3-1841a4541b55/1a6c3209-0b4e-42dd-8a2f-08295af79e44"
          (reference "#PWR05") (unit 1)
        )
        (path "/e63e39d7-6ac0-4ffd-8aa3-1841a4541b55"
          (reference "#PWR05") (unit 1)
        )
      )
    )
  )

  (symbol (lib_id "Device:R") (at 214.884 62.484 0) (unit 1)
    (in_bom yes) (on_board yes) (dnp no) (fields_autoplaced)
    (uuid d1c9e8ca-bc35-4796-ba52-f970049021be)
    (property "Reference" "R11" (at 216.789 61.849 0)
      (effects (font (size 1.27 1.27)) (justify left))
    )
    (property "Value" "10k" (at 216.789 64.389 0)
      (effects (font (size 1.27 1.27)) (justify left))
    )
    (property "Footprint" "Resistor_THT:R_Axial_DIN0207_L6.3mm_D2.5mm_P10.16mm_Horizontal" (at 213.106 62.484 90)
      (effects (font (size 1.27 1.27)) hide)
    )
    (property "Datasheet" "~" (at 214.884 62.484 0)
      (effects (font (size 1.27 1.27)) hide)
    )
    (pin "1" (uuid 62780baf-ae35-4fb7-a749-ffb8cdee50de))
    (pin "2" (uuid a1211605-2f25-42b9-9edb-181576544db4))
    (instances
      (project "Fuente_200W_V2"
        (path "/e63e39d7-6ac0-4ffd-8aa3-1841a4541b55/1a6c3209-0b4e-42dd-8a2f-08295af79e44"
          (reference "R11") (unit 1)
        )
        (path "/e63e39d7-6ac0-4ffd-8aa3-1841a4541b55"
          (reference "R39") (unit 1)
        )
      )
    )
  )

  (symbol (lib_id "Connector_Generic:Conn_01x06") (at 112.649 24.384 90) (unit 1)
    (in_bom yes) (on_board yes) (dnp no) (fields_autoplaced)
    (uuid d4e1aae0-2eee-48f4-9fda-2aaadeea668a)
    (property "Reference" "J9" (at 113.919 19.304 90)
      (effects (font (size 1.27 1.27)))
    )
    (property "Value" "Conn_01x06" (at 113.919 21.844 90)
      (effects (font (size 1.27 1.27)))
    )
    (property "Footprint" "Connector_Molex:Molex_KK-254_AE-6410-06A_1x06_P2.54mm_Vertical" (at 112.649 24.384 0)
      (effects (font (size 1.27 1.27)) hide)
    )
    (property "Datasheet" "~" (at 112.649 24.384 0)
      (effects (font (size 1.27 1.27)) hide)
    )
    (pin "1" (uuid f2032d20-add7-4189-a0df-3c567ef19bcb))
    (pin "2" (uuid 9a2b53aa-3785-4e03-92c1-3cdf68723095))
    (pin "3" (uuid 92c7a67c-277d-4d0b-8b6e-da8cd4363d82))
    (pin "4" (uuid e96f77da-9d0d-46d3-bc2c-15cf9a7afdb6))
    (pin "5" (uuid 46339b8f-50d0-4760-9556-7ef0a9ba90a3))
    (pin "6" (uuid 8f92d3cb-f351-4a56-b7f2-f0c43a3448f8))
    (instances
      (project "Fuente_200W_V2"
        (path "/e63e39d7-6ac0-4ffd-8aa3-1841a4541b55"
          (reference "J9") (unit 1)
        )
      )
    )
  )

  (symbol (lib_id "Connector_Generic:Conn_01x03") (at 140.97 166.37 0) (unit 1)
    (in_bom yes) (on_board yes) (dnp no) (fields_autoplaced)
    (uuid e19e17a0-7070-4a44-95dd-9e71bd883efa)
    (property "Reference" "J11" (at 143.002 166.8053 0)
      (effects (font (size 1.27 1.27)) (justify left))
    )
    (property "Value" "Alimentacion_control" (at 143.002 169.3422 0)
      (effects (font (size 1.27 1.27)) (justify left))
    )
    (property "Footprint" "Connector:FanPinHeader_1x03_P2.54mm_Vertical" (at 140.97 166.37 0)
      (effects (font (size 1.27 1.27)) hide)
    )
    (property "Datasheet" "~" (at 140.97 166.37 0)
      (effects (font (size 1.27 1.27)) hide)
    )
    (pin "1" (uuid 9771a597-2d63-4011-85f5-7aed48b40cd9))
    (pin "2" (uuid 62533bc0-216a-4cff-b871-6bc864c5d285))
    (pin "3" (uuid f2ab16f0-a672-4ce9-bbbd-410a65f6e813))
    (instances
      (project "Fuente_200W_V2"
        (path "/e63e39d7-6ac0-4ffd-8aa3-1841a4541b55/1a6c3209-0b4e-42dd-8a2f-08295af79e44"
          (reference "J11") (unit 1)
        )
        (path "/e63e39d7-6ac0-4ffd-8aa3-1841a4541b55"
          (reference "J11") (unit 1)
        )
      )
    )
  )

  (symbol (lib_id "Connector_Generic:Conn_01x05") (at 129.032 115.57 0) (unit 1)
    (in_bom yes) (on_board yes) (dnp no)
    (uuid f260625e-055c-4e6f-af74-c7b8aa556a17)
    (property "Reference" "J14" (at 127.127 123.825 0)
      (effects (font (size 1.27 1.27)) (justify left))
    )
    (property "Value" "Conn_01x05" (at 127.127 126.365 0)
      (effects (font (size 1.27 1.27)) (justify left))
    )
    (property "Footprint" "Connector_Molex:Molex_KK-254_AE-6410-05A_1x05_P2.54mm_Vertical" (at 129.032 115.57 0)
      (effects (font (size 1.27 1.27)) hide)
    )
    (property "Datasheet" "~" (at 129.032 115.57 0)
      (effects (font (size 1.27 1.27)) hide)
    )
    (pin "1" (uuid b17d5ae0-0ea4-43f0-b736-156ac7af9786))
    (pin "2" (uuid 9038f8d3-c135-4e76-a904-6ed8b28815de))
    (pin "3" (uuid 34b5ad85-587b-4358-ba5f-3a5a575b5089))
    (pin "4" (uuid 55600e3e-9488-4780-980c-9c75cb173c0e))
    (pin "5" (uuid 96ec22fa-2e97-4655-bfbe-e58d2914aa30))
    (instances
      (project "Fuente_200W_V2"
        (path "/e63e39d7-6ac0-4ffd-8aa3-1841a4541b55"
          (reference "J14") (unit 1)
        )
      )
    )
  )

  (symbol (lib_id "Connector_Generic:Conn_01x04") (at 61.214 115.57 180) (unit 1)
    (in_bom yes) (on_board yes) (dnp no)
    (uuid f8917853-6635-4243-8896-dc1c1b0b49e9)
    (property "Reference" "J15" (at 63.119 107.315 0)
      (effects (font (size 1.27 1.27)) (justify left))
    )
    (property "Value" "Conn_01x04" (at 66.548 124.46 0)
      (effects (font (size 1.27 1.27)) (justify left))
    )
    (property "Footprint" "Connector_Molex:Molex_KK-254_AE-6410-04A_1x04_P2.54mm_Vertical" (at 61.214 115.57 0)
      (effects (font (size 1.27 1.27)) hide)
    )
    (property "Datasheet" "~" (at 61.214 115.57 0)
      (effects (font (size 1.27 1.27)) hide)
    )
    (pin "1" (uuid ed21fce0-3281-483d-a03e-51bb45082e7d))
    (pin "2" (uuid 5c219067-3dff-4cbd-95e5-a256ffca9a0e))
    (pin "3" (uuid 33aeef3b-fc3e-45f9-9a5c-80c478a930f3))
    (pin "4" (uuid 5e0bfbee-1119-4849-aba7-3770921b9f5c))
    (instances
      (project "Fuente_200W_V2"
        (path "/e63e39d7-6ac0-4ffd-8aa3-1841a4541b55"
          (reference "J15") (unit 1)
        )
      )
    )
  )

  (sheet (at 23.114 96.774) (size 23.876 23.876) (fields_autoplaced)
    (stroke (width 0.1524) (type solid))
    (fill (color 0 0 0 0.0000))
    (uuid 145919d9-26ed-4c18-a5f4-064796aa23b5)
    (property "Sheetname" "Source" (at 23.114 96.0624 0)
      (effects (font (size 1.27 1.27)) (justify left bottom))
    )
    (property "Sheetfile" "Source.kicad_sch" (at 23.114 121.2346 0)
      (effects (font (size 1.27 1.27)) (justify left top))
    )
    (pin "24V-12V_FLOAT" passive (at 46.99 105.156 0)
      (effects (font (size 1.27 1.27)) (justify right))
      (uuid bc74726b-a03f-49a9-b2f8-e9612694fe79)
    )
    (pin "-12V+24V_FLOAT" passive (at 46.99 101.092 0)
      (effects (font (size 1.27 1.27)) (justify right))
      (uuid 2669dcdd-3d47-4359-ba37-8cb619aa4888)
    )
    (instances
      (project "Fuente_200W_V2"
        (path "/e63e39d7-6ac0-4ffd-8aa3-1841a4541b55" (page "5"))
      )
    )
  )

  (sheet (at 82.55 97.028) (size 25.654 23.876) (fields_autoplaced)
    (stroke (width 0.1524) (type solid))
    (fill (color 0 0 0 0.0000))
    (uuid 185861a5-c200-4f27-903a-834d060c9609)
    (property "Sheetname" "Floating Power Supply" (at 82.55 96.3164 0)
      (effects (font (size 1.27 1.27)) (justify left bottom))
    )
    (property "Sheetfile" "FloatingPwrSupply.kicad_sch" (at 82.55 121.4886 0)
      (effects (font (size 1.27 1.27)) (justify left top))
    )
    (pin "GND_AC" passive (at 82.55 118.11 180)
      (effects (font (size 1.27 1.27)) (justify left))
      (uuid 8e5c4f92-53d8-4070-b255-3465160f6151)
    )
    (pin "+400V" passive (at 82.55 110.49 180)
      (effects (font (size 1.27 1.27)) (justify left))
      (uuid ba48662e-9476-4f23-afcb-f6ceb2f4f293)
    )
    (pin "+24V" passive (at 108.204 113.538 0)
      (effects (font (size 1.27 1.27)) (justify right))
      (uuid e040c18d-ef66-46a8-8f60-a5de30af089c)
    )
    (pin "GND_Float" passive (at 108.204 104.902 0)
      (effects (font (size 1.27 1.27)) (justify right))
      (uuid eec35afe-dc0a-4858-942a-019646a5c924)
    )
    (pin "-12V+24V_FLOAT" passive (at 82.55 99.822 180)
      (effects (font (size 1.27 1.27)) (justify left))
      (uuid 047cc719-4718-41ca-a077-3fad6a530f6b)
    )
    (pin "24V-12V_FLOAT" passive (at 82.55 101.854 180)
      (effects (font (size 1.27 1.27)) (justify left))
      (uuid 01093f0d-29a4-4ba5-8d1b-ac69aea61546)
    )
    (pin "GND" passive (at 108.204 118.364 0)
      (effects (font (size 1.27 1.27)) (justify right))
      (uuid ad40a2ee-c465-42b0-b365-92b744bd8fbf)
    )
    (instances
      (project "Fuente_200W_V2"
        (path "/e63e39d7-6ac0-4ffd-8aa3-1841a4541b55" (page "6"))
      )
    )
  )

  (sheet (at 136.144 46.609) (size 31.75 31.115) (fields_autoplaced)
    (stroke (width 0.1524) (type solid))
    (fill (color 0 0 0 0.0000))
    (uuid 1a6c3209-0b4e-42dd-8a2f-08295af79e44)
    (property "Sheetname" "Control" (at 136.144 45.8974 0)
      (effects (font (size 1.27 1.27)) (justify left bottom))
    )
    (property "Sheetfile" "Control.kicad_sch" (at 136.144 78.3086 0)
      (effects (font (size 1.27 1.27)) (justify left top))
    )
    (pin "Source2" output (at 136.144 68.834 180)
      (effects (font (size 1.27 1.27)) (justify left))
      (uuid f84b26f6-d4cc-4f71-9b84-848c1a12a75d)
    )
    (pin "G2" output (at 136.144 56.134 180)
      (effects (font (size 1.27 1.27)) (justify left))
      (uuid 35aeaff5-a0b6-462a-8452-e66df2efe74a)
    )
    (pin "Source1" output (at 136.144 62.484 180)
      (effects (font (size 1.27 1.27)) (justify left))
      (uuid 4b35377e-0b9e-49ec-a547-1c559e7eaca6)
    )
    (pin "G1" output (at 136.144 49.784 180)
      (effects (font (size 1.27 1.27)) (justify left))
      (uuid 87f5ec0c-ed89-4732-82ba-145fe18e7a0a)
    )
    (pin "Realimentacion" input (at 136.144 75.184 180)
      (effects (font (size 1.27 1.27)) (justify left))
      (uuid 52092d54-612a-45fd-b926-b24e33923b26)
    )
    (pin "{slash}ShutDown_control" input (at 167.894 71.374 0)
      (effects (font (size 1.27 1.27)) (justify right))
      (uuid d136ec68-1a9a-4c86-a2cf-99e99ba7b114)
    )
    (pin "PWM_V_control" input (at 167.894 65.024 0)
      (effects (font (size 1.27 1.27)) (justify right))
      (uuid c26d278f-c96d-4a2a-8001-719e5fd37721)
    )
    (pin "Pulse-" input (at 167.894 53.594 0)
      (effects (font (size 1.27 1.27)) (justify right))
      (uuid ce7d206d-1250-4d34-8ed0-30f35923b55a)
    )
    (pin "Pulse+" input (at 167.894 58.039 0)
      (effects (font (size 1.27 1.27)) (justify right))
      (uuid 2c205834-cf14-42f9-9d9e-3f7452bf3f85)
    )
    (instances
      (project "Fuente_200W_V2"
        (path "/e63e39d7-6ac0-4ffd-8aa3-1841a4541b55" (page "4"))
      )
    )
  )

  (sheet (at 45.974 45.974) (size 33.02 41.91) (fields_autoplaced)
    (stroke (width 0.1524) (type solid))
    (fill (color 0 0 0 0.0000))
    (uuid a04b51e7-8d77-4778-94bd-8ab8885e5bad)
    (property "Sheetname" "Etapa de poder" (at 45.974 45.2624 0)
      (effects (font (size 1.27 1.27)) (justify left bottom))
    )
    (property "Sheetfile" "PowerModule.kicad_sch" (at 45.974 88.4686 0)
      (effects (font (size 1.27 1.27)) (justify left top))
    )
    (pin "G1" input (at 78.994 49.784 0)
      (effects (font (size 1.27 1.27)) (justify right))
      (uuid 06ce5272-4414-416d-82c6-7ee55911d52b)
    )
    (pin "G2" input (at 78.994 56.134 0)
      (effects (font (size 1.27 1.27)) (justify right))
      (uuid 086f4560-acfc-4803-858d-f20852cb59e0)
    )
    (pin "Source1" input (at 78.994 62.484 0)
      (effects (font (size 1.27 1.27)) (justify right))
      (uuid 42054407-b525-4a68-b897-83ebdf4a32a9)
    )
    (pin "Source2" input (at 78.994 68.834 0)
      (effects (font (size 1.27 1.27)) (justify right))
      (uuid 58a63618-3fa9-43d5-b074-e64967094329)
    )
    (pin "Realimentacion" output (at 78.994 75.184 0)
      (effects (font (size 1.27 1.27)) (justify right))
      (uuid b979e168-be78-432c-b4cc-4b39003d14e4)
    )
    (pin "shunt+" output (at 78.994 81.534 0)
      (effects (font (size 1.27 1.27)) (justify right))
      (uuid ec9e7369-1e3b-4438-80bd-f51a45ed32f3)
    )
    (pin "shunt-" output (at 78.994 84.709 0)
      (effects (font (size 1.27 1.27)) (justify right))
      (uuid cd2cae41-3be2-481c-9b89-8170ec49bf89)
    )
    (instances
      (project "Fuente_200W_V2"
        (path "/e63e39d7-6ac0-4ffd-8aa3-1841a4541b55" (page "2"))
      )
    )
  )

  (sheet (at 136.144 93.599) (size 29.845 26.67) (fields_autoplaced)
    (stroke (width 0.1524) (type solid))
    (fill (color 0 0 0 0.0000))
    (uuid ab6d933f-a66d-4dd3-bf45-e171c71abae2)
    (property "Sheetname" "CurrentProtection" (at 136.144 92.8874 0)
      (effects (font (size 1.27 1.27)) (justify left bottom))
    )
    (property "Sheetfile" "Protection.kicad_sch" (at 136.144 120.8536 0)
      (effects (font (size 1.27 1.27)) (justify left top))
    )
    (pin "uC_reset-" input (at 165.989 112.014 0)
      (effects (font (size 1.27 1.27)) (justify right))
      (uuid 74df7908-c810-418e-89a1-d4a1c6f5a87c)
    )
    (pin "uC_reset+" input (at 165.989 108.204 0)
      (effects (font (size 1.27 1.27)) (justify right))
      (uuid ca8c7159-22ba-4705-bbfa-c48226785d7d)
    )
    (pin "shunt+" input (at 136.144 100.584 180)
      (effects (font (size 1.27 1.27)) (justify left))
      (uuid bae8e216-b1f0-413a-b01d-5fa2f4712fca)
    )
    (pin "shunt-" input (at 136.144 104.394 180)
      (effects (font (size 1.27 1.27)) (justify left))
      (uuid 80010d19-740d-43f6-b515-45193e76d1e2)
    )
    (pin "Out" output (at 165.989 99.314 0)
      (effects (font (size 1.27 1.27)) (justify right))
      (uuid 18198f0e-b553-486e-a11f-dbe457136736)
    )
    (pin "Common_Out" passive (at 165.989 103.759 0)
      (effects (font (size 1.27 1.27)) (justify right))
      (uuid 313c459f-c1d5-45ca-a2a3-1a8ea8c55a67)
    )
    (instances
      (project "Fuente_200W_V2"
        (path "/e63e39d7-6ac0-4ffd-8aa3-1841a4541b55" (page "5"))
      )
    )
  )

  (sheet_instances
    (path "/" (page "1"))
  )
)
